<?xml version="1.0" encoding="UTF-8" standalone="no"?>
<!-- Created with Inkscape (http://www.inkscape.org/) -->

<svg
   xmlns:dc="http://purl.org/dc/elements/1.1/"
   xmlns:cc="http://creativecommons.org/ns#"
   xmlns:rdf="http://www.w3.org/1999/02/22-rdf-syntax-ns#"
   xmlns:svg="http://www.w3.org/2000/svg"
   xmlns="http://www.w3.org/2000/svg"
   xmlns:xlink="http://www.w3.org/1999/xlink"
   xmlns:sodipodi="http://sodipodi.sourceforge.net/DTD/sodipodi-0.dtd"
   xmlns:inkscape="http://www.inkscape.org/namespaces/inkscape"
   width="1024"
   height="500"
   id="svg2"
   version="1.1"
   inkscape:version="0.48.5 r10040"
   sodipodi:docname="feature_graphic_2014.svg"
   inkscape:export-filename="heathelper/res/drawable/_originals/feature_graphic_2014.png"
   inkscape:export-xdpi="90"
   inkscape:export-ydpi="90">
  <defs
     id="defs4">
    <linearGradient
       id="linearGradient4316">
      <stop
         style="stop-color:#791701;stop-opacity:1;"
         offset="0"
         id="stop4318" />
      <stop
         style="stop-color:#791701;stop-opacity:0;"
         offset="1"
         id="stop4320" />
    </linearGradient>
    <linearGradient
       id="linearGradient4291">
      <stop
         style="stop-color:#4f5cd5;stop-opacity:1;"
         offset="0"
         id="stop4293" />
      <stop
         style="stop-color:#ffffff;stop-opacity:0;"
         offset="1"
         id="stop4295" />
    </linearGradient>
    <linearGradient
       id="linearGradient6115">
      <stop
         id="stop6117"
         offset="0"
         style="stop-color:#ffffff;stop-opacity:0;" />
      <stop
         id="stop6119"
         offset="1"
         style="stop-color:#ee2b06;stop-opacity:0.69230771;" />
    </linearGradient>
    <linearGradient
       id="linearGradient4156">
      <stop
         style="stop-color:#393939;stop-opacity:1;"
         offset="0"
         id="stop4158" />
      <stop
         style="stop-color:#949494;stop-opacity:1;"
         offset="1"
         id="stop4160" />
    </linearGradient>
    <linearGradient
       id="linearGradient7737">
      <stop
         id="stop7739"
         offset="0"
         style="stop-color:#bb2205;stop-opacity:0;" />
      <stop
         id="stop7741"
         offset="1"
         style="stop-color:#fa664a;stop-opacity:1;" />
    </linearGradient>
    <linearGradient
       id="linearGradient6437">
      <stop
         style="stop-color:#ffffff;stop-opacity:1;"
         offset="0"
         id="stop6439" />
      <stop
         style="stop-color:#c3c9ff;stop-opacity:1;"
         offset="1"
         id="stop6441" />
    </linearGradient>
    <linearGradient
       id="linearGradient5736">
      <stop
         id="stop5738"
         offset="0"
         style="stop-color:#ffffff;stop-opacity:1;" />
      <stop
         id="stop5740"
         offset="1"
         style="stop-color:#f3f4ff;stop-opacity:1;" />
    </linearGradient>
    <linearGradient
       id="linearGradient4049">
      <stop
         style="stop-color:#e02906;stop-opacity:1;"
         offset="0"
         id="stop4051" />
      <stop
         style="stop-color:#ee2b06;stop-opacity:1;"
         offset="1"
         id="stop4053" />
    </linearGradient>
    <linearGradient
       id="linearGradient3905">
      <stop
         style="stop-color:#6c8c8c;stop-opacity:1;"
         offset="0"
         id="stop3907" />
      <stop
         style="stop-color:#dbe3e3;stop-opacity:1;"
         offset="1"
         id="stop3909" />
    </linearGradient>
    <radialGradient
       inkscape:collect="always"
       xlink:href="#linearGradient5736"
       id="radialGradient7401"
       gradientUnits="userSpaceOnUse"
       gradientTransform="matrix(1.5182684,-0.7658339,0.49299482,0.99469399,-359.07888,202.01262)"
       spreadMethod="reflect"
       cx="265.1395"
       cy="472.22134"
       fx="265.1395"
       fy="472.22134"
       r="29.877983" />
    <radialGradient
       inkscape:collect="always"
       xlink:href="#linearGradient5736"
       id="radialGradient7409"
       gradientUnits="userSpaceOnUse"
       gradientTransform="matrix(1.5182684,-0.7658339,0.49299482,0.99469399,-359.07888,202.01262)"
       spreadMethod="reflect"
       cx="265.1395"
       cy="472.22134"
       fx="265.1395"
       fy="472.22134"
       r="29.877983" />
    <radialGradient
       inkscape:collect="always"
       xlink:href="#linearGradient5736"
       id="radialGradient7415"
       gradientUnits="userSpaceOnUse"
       gradientTransform="matrix(1.5182684,-0.7658339,0.49299482,0.99469399,-359.07888,202.01262)"
       spreadMethod="reflect"
       cx="265.1395"
       cy="472.22134"
       fx="265.1395"
       fy="472.22134"
       r="29.877983" />
    <radialGradient
       inkscape:collect="always"
       xlink:href="#linearGradient5736"
       id="radialGradient7429"
       gradientUnits="userSpaceOnUse"
       gradientTransform="matrix(1.5182684,-0.7658339,0.49299482,0.99469399,-359.07888,202.01262)"
       spreadMethod="reflect"
       cx="265.1395"
       cy="472.22134"
       fx="265.1395"
       fy="472.22134"
       r="29.877983" />
    <radialGradient
       inkscape:collect="always"
       xlink:href="#linearGradient5736"
       id="radialGradient7431"
       gradientUnits="userSpaceOnUse"
       gradientTransform="matrix(1.5182684,-0.7658339,0.49299482,0.99469399,-359.07888,202.01262)"
       spreadMethod="reflect"
       cx="265.1395"
       cy="472.22134"
       fx="265.1395"
       fy="472.22134"
       r="29.877983" />
    <radialGradient
       inkscape:collect="always"
       xlink:href="#linearGradient5736"
       id="radialGradient7489"
       gradientUnits="userSpaceOnUse"
       gradientTransform="matrix(1.5182684,-0.7658339,0.49299482,0.99469399,-359.07888,202.01262)"
       spreadMethod="reflect"
       cx="265.1395"
       cy="472.22134"
       fx="265.1395"
       fy="472.22134"
       r="29.877983" />
    <radialGradient
       inkscape:collect="always"
       xlink:href="#linearGradient5736"
       id="radialGradient7503"
       gradientUnits="userSpaceOnUse"
       gradientTransform="matrix(1.5182684,-0.7658339,0.49299482,0.99469399,-359.07888,202.01262)"
       spreadMethod="reflect"
       cx="265.1395"
       cy="472.22134"
       fx="265.1395"
       fy="472.22134"
       r="29.877983" />
    <radialGradient
       inkscape:collect="always"
       xlink:href="#linearGradient5736"
       id="radialGradient7515"
       gradientUnits="userSpaceOnUse"
       gradientTransform="matrix(1.5182684,-0.7658339,0.49299482,0.99469399,-359.07888,202.01262)"
       spreadMethod="reflect"
       cx="265.1395"
       cy="472.22134"
       fx="265.1395"
       fy="472.22134"
       r="29.877983" />
    <radialGradient
       inkscape:collect="always"
       xlink:href="#linearGradient5736"
       id="radialGradient7575"
       gradientUnits="userSpaceOnUse"
       gradientTransform="matrix(1.5182684,-0.7658339,0.49299482,0.99469399,-359.07888,202.01262)"
       spreadMethod="reflect"
       cx="265.1395"
       cy="472.22134"
       fx="265.1395"
       fy="472.22134"
       r="29.877983" />
    <radialGradient
       inkscape:collect="always"
       xlink:href="#linearGradient5736"
       id="radialGradient7589"
       gradientUnits="userSpaceOnUse"
       gradientTransform="matrix(1.5182684,-0.7658339,0.49299482,0.99469399,-359.07888,202.01262)"
       spreadMethod="reflect"
       cx="265.1395"
       cy="472.22134"
       fx="265.1395"
       fy="472.22134"
       r="29.877983" />
    <radialGradient
       inkscape:collect="always"
       xlink:href="#linearGradient5736"
       id="radialGradient7603"
       gradientUnits="userSpaceOnUse"
       gradientTransform="matrix(1.5182684,-0.7658339,0.49299482,0.99469399,-359.07888,202.01262)"
       spreadMethod="reflect"
       cx="265.1395"
       cy="472.22134"
       fx="265.1395"
       fy="472.22134"
       r="29.877983" />
    <radialGradient
       inkscape:collect="always"
       xlink:href="#linearGradient5736"
       id="radialGradient7605"
       gradientUnits="userSpaceOnUse"
       gradientTransform="matrix(1.5182684,-0.7658339,0.49299482,0.99469399,-359.07888,202.01262)"
       spreadMethod="reflect"
       cx="265.1395"
       cy="472.22134"
       fx="265.1395"
       fy="472.22134"
       r="29.877983" />
    <radialGradient
       inkscape:collect="always"
       xlink:href="#linearGradient5736"
       id="radialGradient7759"
       gradientUnits="userSpaceOnUse"
       gradientTransform="matrix(1.5182684,-0.7658339,0.49299482,0.99469399,-359.07888,202.01262)"
       spreadMethod="reflect"
       cx="265.1395"
       cy="472.22134"
       fx="265.1395"
       fy="472.22134"
       r="29.877983" />
    <radialGradient
       inkscape:collect="always"
       xlink:href="#linearGradient6437"
       id="radialGradient7762"
       gradientUnits="userSpaceOnUse"
       gradientTransform="matrix(1.0924469,-0.71231147,0.38505797,0.59029493,208.16908,-44.530428)"
       cx="248.13567"
       cy="642.3017"
       fx="248.13567"
       fy="642.3017"
       r="159.7061" />
    <filter
       inkscape:collect="always"
       id="filter4030"
       x="-0.17793363"
       width="1.3558673"
       y="-0.95345384"
       height="2.9069078"
       color-interpolation-filters="sRGB">
      <feGaussianBlur
         inkscape:collect="always"
         stdDeviation="30.674929"
         id="feGaussianBlur4032" />
    </filter>
    <radialGradient
       inkscape:collect="always"
       xlink:href="#linearGradient6437"
       id="radialGradient4025"
       gradientUnits="userSpaceOnUse"
       gradientTransform="matrix(1.0924469,-0.71231147,0.38505797,0.59029493,208.16908,-44.530428)"
       cx="248.13567"
       cy="642.3017"
       fx="248.13567"
       fy="642.3017"
       r="159.7061" />
    <radialGradient
       inkscape:collect="always"
       xlink:href="#linearGradient6437"
       id="radialGradient4033"
       gradientUnits="userSpaceOnUse"
       gradientTransform="matrix(1.0924469,-0.71231147,0.38505797,0.59029493,208.16908,-44.530428)"
       cx="248.13567"
       cy="642.3017"
       fx="248.13567"
       fy="642.3017"
       r="159.7061" />
    <radialGradient
       inkscape:collect="always"
       xlink:href="#linearGradient5736"
       id="radialGradient4047"
       gradientUnits="userSpaceOnUse"
       gradientTransform="matrix(1.5182684,-0.7658339,0.49299482,0.99469399,-359.07888,202.01262)"
       spreadMethod="reflect"
       cx="265.1395"
       cy="472.22134"
       fx="265.1395"
       fy="472.22134"
       r="29.877983" />
    <radialGradient
       inkscape:collect="always"
       xlink:href="#linearGradient5736"
       id="radialGradient4059"
       gradientUnits="userSpaceOnUse"
       gradientTransform="matrix(1.5182684,-0.7658339,0.49299482,0.99469399,-359.07888,202.01262)"
       spreadMethod="reflect"
       cx="265.1395"
       cy="472.22134"
       fx="265.1395"
       fy="472.22134"
       r="29.877983" />
    <radialGradient
       inkscape:collect="always"
       xlink:href="#linearGradient5736"
       id="radialGradient4061"
       gradientUnits="userSpaceOnUse"
       gradientTransform="matrix(1.5182684,-0.7658339,0.49299482,0.99469399,-359.07888,202.01262)"
       spreadMethod="reflect"
       cx="265.1395"
       cy="472.22134"
       fx="265.1395"
       fy="472.22134"
       r="29.877983" />
    <radialGradient
       inkscape:collect="always"
       xlink:href="#linearGradient5736"
       id="radialGradient4079"
       gradientUnits="userSpaceOnUse"
       gradientTransform="matrix(1.5182684,-0.7658339,0.49299482,0.99469399,-359.07888,202.01262)"
       spreadMethod="reflect"
       cx="265.1395"
       cy="472.22134"
       fx="265.1395"
       fy="472.22134"
       r="29.877983" />
    <radialGradient
       inkscape:collect="always"
       xlink:href="#linearGradient5736"
       id="radialGradient4085"
       gradientUnits="userSpaceOnUse"
       gradientTransform="matrix(1.5182684,-0.7658339,0.49299482,0.99469399,-359.07888,202.01262)"
       spreadMethod="reflect"
       cx="265.1395"
       cy="472.22134"
       fx="265.1395"
       fy="472.22134"
       r="29.877983" />
    <radialGradient
       inkscape:collect="always"
       xlink:href="#linearGradient5736"
       id="radialGradient4087"
       gradientUnits="userSpaceOnUse"
       gradientTransform="matrix(1.5182684,-0.7658339,0.49299482,0.99469399,-359.07888,202.01262)"
       spreadMethod="reflect"
       cx="265.1395"
       cy="472.22134"
       fx="265.1395"
       fy="472.22134"
       r="29.877983" />
    <filter
       inkscape:collect="always"
       id="filter4189"
       color-interpolation-filters="sRGB">
      <feGaussianBlur
         inkscape:collect="always"
         stdDeviation="1.3981924"
         id="feGaussianBlur4191" />
    </filter>
    <filter
       inkscape:collect="always"
       id="filter4193"
       color-interpolation-filters="sRGB">
      <feGaussianBlur
         inkscape:collect="always"
         stdDeviation="1.3981924"
         id="feGaussianBlur4195" />
    </filter>
    <filter
       inkscape:collect="always"
       id="filter4209"
       color-interpolation-filters="sRGB">
      <feGaussianBlur
         inkscape:collect="always"
         stdDeviation="0.80916826"
         id="feGaussianBlur4211" />
    </filter>
    <filter
       inkscape:collect="always"
       id="filter4213"
       color-interpolation-filters="sRGB">
      <feGaussianBlur
         inkscape:collect="always"
         stdDeviation="0.95974761"
         id="feGaussianBlur4215" />
    </filter>
    <linearGradient
       inkscape:collect="always"
       xlink:href="#linearGradient4291"
       id="linearGradient4300"
       gradientUnits="userSpaceOnUse"
       x1="506"
       y1="32"
       x2="519"
       y2="281" />
    <filter
       inkscape:collect="always"
       id="filter4310"
       x="-0.068706989"
       width="1.137414"
       y="-0.23948665"
       height="1.4789733"
       color-interpolation-filters="sRGB">
      <feGaussianBlur
         inkscape:collect="always"
         stdDeviation="31.233051"
         id="feGaussianBlur4312" />
    </filter>
    <linearGradient
       inkscape:collect="always"
       xlink:href="#linearGradient4316"
       id="linearGradient4322"
       x1="526.5"
       y1="209.5"
       x2="533.5"
       y2="501.5"
       gradientUnits="userSpaceOnUse"
       gradientTransform="translate(0,638.36218)" />
    <filter
       inkscape:collect="always"
       id="filter4668"
       color-interpolation-filters="sRGB">
      <feGaussianBlur
         inkscape:collect="always"
         stdDeviation="0.14300707"
         id="feGaussianBlur4670" />
    </filter>
    <filter
       inkscape:collect="always"
       id="filter4672"
       color-interpolation-filters="sRGB">
      <feGaussianBlur
         inkscape:collect="always"
         stdDeviation="0.14300707"
         id="feGaussianBlur4674" />
    </filter>
    <radialGradient
       inkscape:collect="always"
       xlink:href="#linearGradient5736"
       id="radialGradient4688"
       gradientUnits="userSpaceOnUse"
       gradientTransform="matrix(1.5182684,-0.7658339,0.49299482,0.99469399,-359.07888,202.01262)"
       spreadMethod="reflect"
       cx="265.1395"
       cy="472.22134"
       fx="265.1395"
       fy="472.22134"
       r="29.877983" />
    <radialGradient
       inkscape:collect="always"
       xlink:href="#linearGradient4049"
       id="radialGradient5737"
       gradientUnits="userSpaceOnUse"
       gradientTransform="matrix(0.8294323,-0.01292672,0.0064006,0.41068957,49.714729,-24.083895)"
       cx="284.1098"
       cy="1036.6869"
       fx="284.1098"
       fy="1036.6869"
       r="211.8744" />
    <linearGradient
       inkscape:collect="always"
       xlink:href="#linearGradient7737"
       id="linearGradient5739"
       gradientUnits="userSpaceOnUse"
       x1="235.51039"
       y1="985.58527"
       x2="300.65216"
       y2="850.44348" />
    <linearGradient
       inkscape:collect="always"
       xlink:href="#linearGradient6115"
       id="linearGradient5741"
       gradientUnits="userSpaceOnUse"
       gradientTransform="matrix(1.2943811,0,0,0.83017666,38.91975,303.70255)"
       x1="171.46796"
       y1="174.26328"
       x2="177.99316"
       y2="96.382355" />
    <radialGradient
       inkscape:collect="always"
       xlink:href="#linearGradient5736"
       id="radialGradient5791"
       gradientUnits="userSpaceOnUse"
       gradientTransform="matrix(1.5182684,-0.7658339,0.49299482,0.99469399,-359.07888,202.01262)"
       spreadMethod="reflect"
       cx="265.1395"
       cy="472.22134"
       fx="265.1395"
       fy="472.22134"
       r="29.877983" />
    <radialGradient
       inkscape:collect="always"
       xlink:href="#linearGradient5736"
       id="radialGradient5793"
       gradientUnits="userSpaceOnUse"
       gradientTransform="matrix(1.5182684,-0.7658339,0.49299482,0.99469399,-359.07888,202.01262)"
       spreadMethod="reflect"
       cx="265.1395"
       cy="472.22134"
       fx="265.1395"
       fy="472.22134"
       r="29.877983" />
    <linearGradient
       inkscape:collect="always"
       xlink:href="#linearGradient4156"
       id="linearGradient4225"
       gradientUnits="userSpaceOnUse"
       gradientTransform="translate(0,6)"
       x1="169.52365"
       y1="463.66882"
       x2="165"
       y2="482" />
    <filter
       height="2.9069077"
       y="-0.95345386"
       width="1.3558673"
       x="-0.17793364"
       id="filter4030-9"
       inkscape:collect="always">
      <feGaussianBlur
         id="feGaussianBlur4032-9"
         stdDeviation="30.674929"
         inkscape:collect="always" />
    </filter>
    <radialGradient
       r="29.877983"
       fy="472.22134"
       fx="265.1395"
       cy="472.22134"
       cx="265.1395"
       spreadMethod="reflect"
       gradientTransform="matrix(1.5182684,-0.7658339,0.49299482,0.99469399,-359.07888,202.01262)"
       gradientUnits="userSpaceOnUse"
       id="radialGradient7759-3"
       xlink:href="#linearGradient5736-7"
       inkscape:collect="always" />
    <radialGradient
       r="29.877983"
       fy="472.22134"
       fx="265.1395"
       cy="472.22134"
       cx="265.1395"
       spreadMethod="reflect"
       gradientTransform="matrix(1.5182684,-0.7658339,0.49299482,0.99469399,-359.07888,202.01262)"
       gradientUnits="userSpaceOnUse"
       id="radialGradient7605-0"
       xlink:href="#linearGradient5736-7"
       inkscape:collect="always" />
    <radialGradient
       r="29.877983"
       fy="472.22134"
       fx="265.1395"
       cy="472.22134"
       cx="265.1395"
       spreadMethod="reflect"
       gradientTransform="matrix(1.5182684,-0.7658339,0.49299482,0.99469399,-359.07888,202.01262)"
       gradientUnits="userSpaceOnUse"
       id="radialGradient7603-7"
       xlink:href="#linearGradient5736-7"
       inkscape:collect="always" />
    <radialGradient
       r="29.877983"
       fy="472.22134"
       fx="265.1395"
       cy="472.22134"
       cx="265.1395"
       spreadMethod="reflect"
       gradientTransform="matrix(1.5182684,-0.7658339,0.49299482,0.99469399,-359.07888,202.01262)"
       gradientUnits="userSpaceOnUse"
       id="radialGradient7589-2"
       xlink:href="#linearGradient5736-7"
       inkscape:collect="always" />
    <radialGradient
       r="29.877983"
       fy="472.22134"
       fx="265.1395"
       cy="472.22134"
       cx="265.1395"
       spreadMethod="reflect"
       gradientTransform="matrix(1.5182684,-0.7658339,0.49299482,0.99469399,-359.07888,202.01262)"
       gradientUnits="userSpaceOnUse"
       id="radialGradient7575-6"
       xlink:href="#linearGradient5736-7"
       inkscape:collect="always" />
    <radialGradient
       r="29.877983"
       fy="472.22134"
       fx="265.1395"
       cy="472.22134"
       cx="265.1395"
       spreadMethod="reflect"
       gradientTransform="matrix(1.5182684,-0.7658339,0.49299482,0.99469399,-359.07888,202.01262)"
       gradientUnits="userSpaceOnUse"
       id="radialGradient7503-5"
       xlink:href="#linearGradient5736-7"
       inkscape:collect="always" />
    <radialGradient
       r="29.877983"
       fy="472.22134"
       fx="265.1395"
       cy="472.22134"
       cx="265.1395"
       spreadMethod="reflect"
       gradientTransform="matrix(1.5182684,-0.7658339,0.49299482,0.99469399,-359.07888,202.01262)"
       gradientUnits="userSpaceOnUse"
       id="radialGradient7489-6"
       xlink:href="#linearGradient5736-7"
       inkscape:collect="always" />
    <radialGradient
       r="29.877983"
       fy="472.22134"
       fx="265.1395"
       cy="472.22134"
       cx="265.1395"
       spreadMethod="reflect"
       gradientTransform="matrix(1.5182684,-0.7658339,0.49299482,0.99469399,-359.07888,202.01262)"
       gradientUnits="userSpaceOnUse"
       id="radialGradient7431-8"
       xlink:href="#linearGradient5736-7"
       inkscape:collect="always" />
    <radialGradient
       r="29.877983"
       fy="472.22134"
       fx="265.1395"
       cy="472.22134"
       cx="265.1395"
       spreadMethod="reflect"
       gradientTransform="matrix(1.5182684,-0.7658339,0.49299482,0.99469399,-359.07888,202.01262)"
       gradientUnits="userSpaceOnUse"
       id="radialGradient7429-9"
       xlink:href="#linearGradient5736-7"
       inkscape:collect="always" />
    <radialGradient
       r="29.877983"
       fy="472.22134"
       fx="265.1395"
       cy="472.22134"
       cx="265.1395"
       spreadMethod="reflect"
       gradientTransform="matrix(1.5182684,-0.7658339,0.49299482,0.99469399,-359.07888,202.01262)"
       gradientUnits="userSpaceOnUse"
       id="radialGradient7415-3"
       xlink:href="#linearGradient5736-7"
       inkscape:collect="always" />
    <radialGradient
       r="29.877983"
       fy="472.22134"
       fx="265.1395"
       cy="472.22134"
       cx="265.1395"
       spreadMethod="reflect"
       gradientTransform="matrix(1.5182684,-0.7658339,0.49299482,0.99469399,-359.07888,202.01262)"
       gradientUnits="userSpaceOnUse"
       id="radialGradient7409-0"
       xlink:href="#linearGradient5736-7"
       inkscape:collect="always" />
    <radialGradient
       r="29.877983"
       fy="472.22134"
       fx="265.1395"
       cy="472.22134"
       cx="265.1395"
       spreadMethod="reflect"
       gradientTransform="matrix(1.5182684,-0.7658339,0.49299482,0.99469399,-359.07888,202.01262)"
       gradientUnits="userSpaceOnUse"
       id="radialGradient7401-7"
       xlink:href="#linearGradient5736-7"
       inkscape:collect="always" />
    <linearGradient
       gradientTransform="matrix(0.77878787,0,0,0.77878787,77.878787,606.89552)"
       gradientUnits="userSpaceOnUse"
       y2="512"
       x2="380"
       y1="-121.38522"
       x1="90.384621"
       id="linearGradient3911"
       xlink:href="#linearGradient3905-3"
       inkscape:collect="always" />
    <linearGradient
       id="linearGradient3905-3">
      <stop
         id="stop3907-9"
         offset="0"
         style="stop-color:#6c8c8c;stop-opacity:1;" />
      <stop
         id="stop3909-9"
         offset="1"
         style="stop-color:#dbe3e3;stop-opacity:1;" />
    </linearGradient>
    <linearGradient
       id="linearGradient4049-9">
      <stop
         id="stop4051-0"
         offset="0"
         style="stop-color:#e02906;stop-opacity:1;" />
      <stop
         id="stop4053-2"
         offset="1"
         style="stop-color:#ee2b06;stop-opacity:1;" />
    </linearGradient>
    <linearGradient
       id="linearGradient5736-7">
      <stop
         style="stop-color:#ffffff;stop-opacity:1;"
         offset="0"
         id="stop5738-3" />
      <stop
         style="stop-color:#fafafa;stop-opacity:1;"
         offset="1"
         id="stop5740-7" />
    </linearGradient>
    <linearGradient
       id="linearGradient6437-5">
      <stop
         id="stop6439-2"
         offset="0"
         style="stop-color:#ffffff;stop-opacity:1;" />
      <stop
         id="stop6441-2"
         offset="1"
         style="stop-color:#f0f0f0;stop-opacity:1;" />
    </linearGradient>
    <linearGradient
       id="linearGradient7737-3">
      <stop
         style="stop-color:#bb2205;stop-opacity:0;"
         offset="0"
         id="stop7739-9" />
      <stop
         style="stop-color:#fa664a;stop-opacity:1;"
         offset="1"
         id="stop7741-0" />
    </linearGradient>
    <linearGradient
       id="linearGradient4156-2">
      <stop
         id="stop4158-4"
         offset="0"
         style="stop-color:#393939;stop-opacity:1;" />
      <stop
         id="stop4160-8"
         offset="1"
         style="stop-color:#949494;stop-opacity:1;" />
    </linearGradient>
    <linearGradient
       id="linearGradient6115-3">
      <stop
         style="stop-color:#ffffff;stop-opacity:0;"
         offset="0"
         id="stop6117-8" />
      <stop
         style="stop-color:#ee2b06;stop-opacity:0.69230771;"
         offset="1"
         id="stop6119-0" />
    </linearGradient>
    <linearGradient
       id="linearGradient3950">
      <stop
         id="stop3952"
         offset="0"
         style="stop-color:#ffffff;stop-opacity:1;" />
      <stop
         id="stop3954"
         offset="1"
         style="stop-color:#fafafa;stop-opacity:0" />
    </linearGradient>
    <linearGradient
       id="linearGradient3956">
      <stop
         style="stop-color:#e5e5e5;stop-opacity:1;"
         offset="0"
         id="stop3958" />
      <stop
         style="stop-color:#ffffff;stop-opacity:0;"
         offset="1"
         id="stop3960" />
    </linearGradient>
    <radialGradient
       inkscape:collect="always"
       xlink:href="#linearGradient4049-9"
       id="radialGradient4893"
       gradientUnits="userSpaceOnUse"
       gradientTransform="matrix(0.8294323,-0.01292672,0.0064006,0.41068957,49.714729,-24.083895)"
       cx="284.1098"
       cy="1036.6869"
       fx="284.1098"
       fy="1036.6869"
       r="211.8744" />
    <linearGradient
       inkscape:collect="always"
       xlink:href="#linearGradient7737-3"
       id="linearGradient4895"
       gradientUnits="userSpaceOnUse"
       x1="235.51039"
       y1="985.58527"
       x2="300.65216"
       y2="850.44348" />
    <linearGradient
       inkscape:collect="always"
       xlink:href="#linearGradient6115-3"
       id="linearGradient4897"
       gradientUnits="userSpaceOnUse"
       gradientTransform="matrix(1.2943811,0,0,0.83017666,38.91975,303.70255)"
       x1="171.46796"
       y1="174.26328"
       x2="177.99316"
       y2="96.382355" />
    <radialGradient
       inkscape:collect="always"
       xlink:href="#linearGradient6437-5"
       id="radialGradient4935"
       gradientUnits="userSpaceOnUse"
       gradientTransform="matrix(1.0960634,-1.3246916,0.9709635,0.80338513,-637.43343,-80.178015)"
       cx="236.6131"
       cy="659.23224"
       fx="236.6131"
       fy="659.23224"
       r="159.7061" />
    <radialGradient
       inkscape:collect="always"
       xlink:href="#linearGradient5736-7"
       id="radialGradient4937"
       gradientUnits="userSpaceOnUse"
       gradientTransform="matrix(1.5182684,-0.7658339,0.49299482,0.99469399,-359.07888,202.01262)"
       spreadMethod="reflect"
       cx="265.1395"
       cy="472.22134"
       fx="265.1395"
       fy="472.22134"
       r="29.877983" />
    <radialGradient
       inkscape:collect="always"
       xlink:href="#linearGradient5736-7"
       id="radialGradient4939"
       gradientUnits="userSpaceOnUse"
       gradientTransform="matrix(1.5182684,-0.7658339,0.49299482,0.99469399,-359.07888,202.01262)"
       spreadMethod="reflect"
       cx="265.1395"
       cy="472.22134"
       fx="265.1395"
       fy="472.22134"
       r="29.877983" />
    <radialGradient
       inkscape:collect="always"
       xlink:href="#linearGradient5736-7"
       id="radialGradient4941"
       gradientUnits="userSpaceOnUse"
       gradientTransform="matrix(1.5182684,-0.7658339,0.49299482,0.99469399,-359.07888,202.01262)"
       spreadMethod="reflect"
       cx="265.1395"
       cy="472.22134"
       fx="265.1395"
       fy="472.22134"
       r="29.877983" />
    <radialGradient
       inkscape:collect="always"
       xlink:href="#linearGradient5736-7"
       id="radialGradient4943"
       gradientUnits="userSpaceOnUse"
       gradientTransform="matrix(1.5182684,-0.7658339,0.49299482,0.99469399,-359.07888,202.01262)"
       spreadMethod="reflect"
       cx="265.1395"
       cy="472.22134"
       fx="265.1395"
       fy="472.22134"
       r="29.877983" />
    <radialGradient
       inkscape:collect="always"
       xlink:href="#linearGradient6437-5"
       id="radialGradient4973"
       gradientUnits="userSpaceOnUse"
       gradientTransform="matrix(1.0960634,-1.3246916,0.9709635,0.80338513,-637.43343,-80.178015)"
       cx="236.6131"
       cy="659.23224"
       fx="236.6131"
       fy="659.23224"
       r="159.7061" />
    <radialGradient
       inkscape:collect="always"
       xlink:href="#linearGradient5736-7"
       id="radialGradient4975"
       gradientUnits="userSpaceOnUse"
       gradientTransform="matrix(1.5182684,-0.7658339,0.49299482,0.99469399,-359.07888,202.01262)"
       spreadMethod="reflect"
       cx="265.1395"
       cy="472.22134"
       fx="265.1395"
       fy="472.22134"
       r="29.877983" />
    <radialGradient
       inkscape:collect="always"
       xlink:href="#linearGradient5736-7"
       id="radialGradient4977"
       gradientUnits="userSpaceOnUse"
       gradientTransform="matrix(1.5182684,-0.7658339,0.49299482,0.99469399,-359.07888,202.01262)"
       spreadMethod="reflect"
       cx="265.1395"
       cy="472.22134"
       fx="265.1395"
       fy="472.22134"
       r="29.877983" />
    <radialGradient
       inkscape:collect="always"
       xlink:href="#linearGradient5736-7"
       id="radialGradient4979"
       gradientUnits="userSpaceOnUse"
       gradientTransform="matrix(1.5182684,-0.7658339,0.49299482,0.99469399,-359.07888,202.01262)"
       spreadMethod="reflect"
       cx="265.1395"
       cy="472.22134"
       fx="265.1395"
       fy="472.22134"
       r="29.877983" />
    <radialGradient
       inkscape:collect="always"
       xlink:href="#linearGradient5736-7"
       id="radialGradient4981"
       gradientUnits="userSpaceOnUse"
       gradientTransform="matrix(1.5182684,-0.7658339,0.49299482,0.99469399,-359.07888,202.01262)"
       spreadMethod="reflect"
       cx="265.1395"
       cy="472.22134"
       fx="265.1395"
       fy="472.22134"
       r="29.877983" />
    <linearGradient
       inkscape:collect="always"
       xlink:href="#linearGradient4156-2"
       id="linearGradient5137"
       gradientUnits="userSpaceOnUse"
       gradientTransform="translate(0,6)"
       x1="169.52365"
       y1="463.66882"
       x2="165"
       y2="482" />
    <radialGradient
       inkscape:collect="always"
       xlink:href="#linearGradient6437-5"
       id="radialGradient5146"
       gradientUnits="userSpaceOnUse"
       gradientTransform="matrix(0.83861509,-1.0135421,0.74289921,0.61468241,14.138679,-26.366803)"
       cx="236.6131"
       cy="659.23224"
       fx="236.6131"
       fy="659.23224"
       r="159.7061" />
    <radialGradient
       inkscape:collect="always"
       xlink:href="#linearGradient6437-5"
       id="radialGradient5153"
       gradientUnits="userSpaceOnUse"
       gradientTransform="matrix(0.83861509,-1.0135421,0.74289921,0.61468241,14.138679,-26.366803)"
       cx="236.6131"
       cy="659.23224"
       fx="236.6131"
       fy="659.23224"
       r="159.7061" />
  </defs>
  <sodipodi:namedview
     id="base"
     pagecolor="#ffffff"
     bordercolor="#666666"
     borderopacity="1.0"
     inkscape:pageopacity="1"
     inkscape:pageshadow="2"
     inkscape:zoom="0.5"
     inkscape:cx="828.61905"
     inkscape:cy="116.82352"
     inkscape:document-units="px"
     inkscape:current-layer="layer6"
     showgrid="false"
     inkscape:window-width="1440"
     inkscape:window-height="856"
     inkscape:window-x="0"
     inkscape:window-y="0"
     inkscape:window-maximized="1"
     showguides="true"
     inkscape:guide-bbox="true">
    <inkscape:grid
       type="xygrid"
       id="grid2985"
       empspacing="5"
       visible="true"
       enabled="true"
       snapvisiblegridlinesonly="true"
       color="#0000ff"
       opacity="0.52156863"
       empcolor="#7c7cff"
       empopacity="0.23921569" />
  </sodipodi:namedview>
  <metadata
     id="metadata7">
    <rdf:RDF>
      <cc:Work
         rdf:about="">
        <dc:format>image/svg+xml</dc:format>
        <dc:type
           rdf:resource="http://purl.org/dc/dcmitype/StillImage" />
        <dc:title></dc:title>
      </cc:Work>
    </rdf:RDF>
  </metadata>
  <g
     inkscape:groupmode="layer"
     id="layer4"
     inkscape:label="Black"
     style="display:none"
     sodipodi:insensitive="true"
     transform="translate(0,-12)">
    <rect
       style="color:#000000;fill:#000000;fill-opacity:1;stroke:none;stroke-width:20;marker:none;visibility:visible;display:inline;overflow:visible;enable-background:accumulate"
       id="rect4079"
       width="514"
       height="514"
       x="-7.1054274e-15"
       y="-2" />
    <rect
       style="color:#000000;fill:none;stroke:none;stroke-width:20;marker:none;visibility:visible;display:inline;overflow:visible;enable-background:accumulate"
       id="rect4077"
       width="300"
       height="410"
       x="0"
       y="102"
       ry="0" />
  </g>
  <g
     style="display:none"
     inkscape:label="Blue"
     id="g4118"
     inkscape:groupmode="layer"
     sodipodi:insensitive="true"
     transform="translate(0,-12)">
    <rect
       y="-2"
       x="-7.1054274e-15"
       height="514"
       width="514"
       id="rect4120"
       style="color:#000000;fill:#49439e;fill-opacity:1;stroke:none;stroke-width:20;marker:none;visibility:visible;display:inline;overflow:visible;enable-background:accumulate" />
    <rect
       ry="0"
       y="102"
       x="0"
       height="410"
       width="300"
       id="rect4122"
       style="color:#000000;fill:none;stroke:none;stroke-width:20;marker:none;visibility:visible;display:inline;overflow:visible;enable-background:accumulate" />
  </g>
  <g
     inkscape:label="BG"
     inkscape:groupmode="layer"
     id="layer1"
     transform="translate(0,-552.36218)"
     style="display:none"
     sodipodi:insensitive="true">
    <path
       style="opacity:0.51293137;fill:url(#linearGradient4300);fill-opacity:1;stroke:#000000;stroke-width:0.87529558px;stroke-linecap:butt;stroke-linejoin:miter;stroke-opacity:1;display:inline;filter:url(#filter4310)"
       d="m -23,251 c 690,-56 1091,11 1091,11 L 1055,-49 -23,-51 z"
       id="path4289"
       inkscape:connector-curvature="0"
       transform="matrix(1,0,0,1.3052404,0,472.38919)" />
    <path
       style="opacity:0.73706863;fill:url(#linearGradient4322);fill-opacity:1;stroke:none;display:inline"
       d="m -24,920.36218 c 839,85.00002 1070,-16 1070,-16 l 4,241.00002 -1074,2 z"
       id="path4314"
       inkscape:connector-curvature="0" />
  </g>
  <g
     inkscape:groupmode="layer"
     id="layer2"
     inkscape:label="Car"
     style="display:none"
     transform="translate(0,-12)"
     sodipodi:insensitive="true">
    <g
       id="g6305"
       transform="matrix(0.75856701,0,0,0.75840333,461.75441,77.34193)">
      <path
         sodipodi:nodetypes="czcc"
         inkscape:connector-curvature="0"
         id="path4136"
         d="m 203.2,473.8995 c 0,0 0,30.1005 -35.2,30.1005 -35.2,0 -35.2,-30.1005 -35.2,-30.1005 z"
         style="color:#000000;fill:#141414;fill-opacity:1;fill-rule:nonzero;stroke:#000000;stroke-width:13.18417358;stroke-linecap:round;stroke-linejoin:miter;stroke-miterlimit:4;stroke-opacity:1;stroke-dasharray:none;stroke-dashoffset:0;marker:none;visibility:visible;display:inline;overflow:visible;enable-background:accumulate"
         inkscape:export-filename="heathelper/res/drawable-xhdpi/path3824.png"
         inkscape:export-xdpi="16.879999"
         inkscape:export-ydpi="16.879999" />
      <path
         inkscape:export-ydpi="16.879999"
         inkscape:export-xdpi="16.879999"
         inkscape:export-filename="heathelper/res/drawable-xhdpi/path3824.png"
         style="color:#000000;fill:#646464;fill-opacity:1;fill-rule:nonzero;stroke:url(#linearGradient4225);stroke-width:13.18417358;stroke-linecap:round;stroke-linejoin:miter;stroke-miterlimit:4;stroke-opacity:1;stroke-dasharray:none;stroke-dashoffset:0;marker:none;visibility:visible;display:inline;overflow:visible;enable-background:accumulate"
         d="m 207.2,469.8995 c 0,0 0,30.1005 -35.2,30.1005 -35.2,0 -35.2,-30.1005 -35.2,-30.1005 z"
         id="path3824"
         inkscape:connector-curvature="0"
         sodipodi:nodetypes="czcc" />
      <use
         height="512"
         width="512"
         transform="translate(240,0)"
         id="use4140"
         xlink:href="#path4136"
         y="0"
         x="0" />
      <use
         style="fill:#ee2b06;fill-opacity:1"
         height="512"
         width="512"
         transform="translate(240,0)"
         id="use3826"
         xlink:href="#path3824"
         y="0"
         x="0" />
      <path
         transform="matrix(0.89529196,0,0,-0.28070361,9.631613,602.21132)"
         sodipodi:nodetypes="cccccccc"
         inkscape:connector-curvature="0"
         id="path6443"
         d="m 474,452.00001 c 11,40.375 -10,38.00001 -10,38.00001 l -390,0 c 0,0 -23.762656,-30.47517 0,-38.00001 30,-4.75 70,-9.5 140,-9.5 C 244,437.75001 254,414 254,414 c 0,0 100,-4.75 150,4.75 10,0 -20,28.50001 70,33.25001 z"
         style="opacity:0.56243543;fill:#000000;fill-opacity:1;stroke:none;display:inline;filter:url(#filter4030)" />
      <g
         id="g6294">
        <path
           sodipodi:nodetypes="cccccccc"
           inkscape:connector-curvature="0"
           id="path3757"
           d="m 486,368 c 11,85 -10,80.00002 -10,80.00002 l -390,0 c 0,0 -23.762656,-64.15825 0,-80.00002 30,-10 70,-20 140,-20 16,-20 40,-60 40,-60 0,0 100,-10 150,10 10,0 -20,60 70,70 z"
           style="fill:url(#radialGradient5737);fill-opacity:1;stroke:#bb2205;stroke-width:19.77626038;stroke-linecap:butt;stroke-linejoin:round;stroke-miterlimit:4;stroke-opacity:1;stroke-dasharray:none" />
        <path
           sodipodi:type="inkscape:offset"
           inkscape:radius="-3.9581714"
           inkscape:original="M 310.25 829.71875 C 284.08181 829.71875 265.60599 831.28518 259.75 831.8125 C 255.85336 838.28556 237.04254 869.33745 221.6875 888.53125 A 9.8595302 9.8595302 0 0 1 214 892.21875 C 146.08143 892.21875 107.91013 901.62536 78.71875 911.25 C 76.354558 913.25845 74.564196 916.85001 73.75 922.875 C 72.848698 929.54457 73.42253 938.28638 74.8125 946.71875 C 76.681821 958.05915 79.282389 966.7602 81.15625 972.53125 L 462.9375 972.53125 C 463.19084 972.16975 463.48004 971.72672 464 970.46875 C 466.39626 964.67134 469.1674 947.42489 465.0625 910.9375 C 445.68453 907.93172 431.20996 902.56999 420.84375 895.28125 C 409.073 887.00494 402.58489 876.35401 399.5625 866.53125 C 396.54011 856.70849 396.65625 847.6875 396.65625 841.90625 C 396.65625 840.97188 396.61439 840.99451 396.59375 840.25 C 373.99913 832.35839 339.37997 829.71875 310.25 829.71875 z "
           style="fill:none;stroke:url(#linearGradient5739);stroke-width:19.77626038;stroke-linecap:butt;stroke-linejoin:round;stroke-miterlimit:4;stroke-opacity:1;stroke-dasharray:none"
           id="path4085"
           d="m 310.25,833.6875 c -24.54778,0 -41.38841,1.34181 -48.1875,1.9375 -4.81508,7.98075 -22.19696,36.51964 -37.28125,55.375 l -3.09375,-2.46875 -3.09375,-2.46875 c 0.97111,-1.20975 -1.25592,1.40361 -0.21875,0.25 1.03717,-1.15361 -1.31875,1.31262 -0.21875,0.21875 1.1,-1.09387 -1.40938,1.28071 -0.25,0.25 1.15938,-1.03071 -1.46515,1.15184 -0.25,0.1875 1.21515,-0.96434 -1.51712,1.1137 -0.25,0.21875 1.26712,-0.89495 -1.59639,1.01027 -0.28125,0.1875 1.31514,-0.82277 -1.6403,0.90426 -0.28125,0.15625 1.35905,-0.74801 -1.67996,0.82718 -0.28125,0.15625 1.39871,-0.67093 -1.74651,0.71674 -0.3125,0.125 1.43401,-0.59174 -1.77732,0.63571 -0.3125,0.125 1.46482,-0.51071 -1.80357,0.52184 -0.3125,0.0937 1.49107,-0.42809 -1.82515,0.43787 -0.3125,0.0937 1.51265,-0.34412 -1.84201,0.32159 -0.3125,0.0625 1.52951,-0.25909 -1.88535,0.20449 -0.34375,0.0312 1.5416,-0.17324 -1.86137,0.1181 -0.3125,0.0312 1.54887,-0.0869 -1.89505,1.9e-4 -0.34375,0 l 0,3.96875 0,3.96875 c -66.8152,0 -104.18262,9.06733 -133,18.5 -1.268202,1.24658 -2.624596,3.62831 -3.3125,8.71875 -0.809973,5.99374 -0.315753,14.48454 1.03125,22.65625 1.589083,9.64031 3.634829,16.92777 5.375,22.5 l 376.34375,0 c 1.70883,-4.46798 4.37626,-20.99611 0.90625,-54.34375 -18.18312,-3.15385 -32.36166,-8.36123 -42.78125,-15.6875 -12.51797,-8.8017 -19.52713,-20.26786 -22.78125,-30.84375 -3.04,-9.88 -3.06755,-18.6624 -3.0625,-24.46875 -21.75313,-6.94782 -54.64392,-9.53125 -82.46875,-9.53125 z"
           transform="translate(12,-534.36218)" />
        <path
           style="fill:url(#linearGradient5741);fill-opacity:1;stroke:none;display:inline"
           d="M 89.176062,440.14486 C 166.06353,372.62995 508.99041,407.35858 465.47891,439.87068 z"
           id="path6030"
           inkscape:connector-curvature="0"
           sodipodi:nodetypes="ccc" />
      </g>
    </g>
  </g>
  <g
     inkscape:groupmode="layer"
     id="layer8"
     inkscape:label="New Car"
     style="display:inline">
    <g
       id="layer2-7"
       inkscape:label="Car"
       style="display:inline"
       transform="translate(431.26016,-22.908164)">
      <g
         id="g6305-1"
         transform="translate(0,-10)">
        <path
           sodipodi:nodetypes="czcc"
           inkscape:connector-curvature="0"
           id="path4136-3"
           d="m 203.2,473.8995 c 0,0 0,30.1005 -35.2,30.1005 -35.2,0 -35.2,-30.1005 -35.2,-30.1005 z"
           style="color:#000000;fill:#141414;fill-opacity:1;fill-rule:nonzero;stroke:#000000;stroke-width:10;stroke-linecap:round;stroke-linejoin:miter;stroke-miterlimit:4;stroke-opacity:1;stroke-dasharray:none;stroke-dashoffset:0;marker:none;visibility:visible;display:inline;overflow:visible;enable-background:accumulate"
           inkscape:export-filename="heathelper/res/drawable-xhdpi/path3824.png"
           inkscape:export-xdpi="16.879999"
           inkscape:export-ydpi="16.879999" />
        <path
           inkscape:export-ydpi="16.879999"
           inkscape:export-xdpi="16.879999"
           inkscape:export-filename="heathelper/res/drawable-xhdpi/path3824.png"
           style="color:#000000;fill:#646464;fill-opacity:1;fill-rule:nonzero;stroke:url(#linearGradient5137);stroke-width:10;stroke-linecap:round;stroke-linejoin:miter;stroke-miterlimit:4;stroke-opacity:1;stroke-dasharray:none;stroke-dashoffset:0;marker:none;visibility:visible;display:inline;overflow:visible;enable-background:accumulate"
           d="m 207.2,469.8995 c 0,0 0,30.1005 -35.2,30.1005 -35.2,0 -35.2,-30.1005 -35.2,-30.1005 z"
           id="path3824-8"
           inkscape:connector-curvature="0"
           sodipodi:nodetypes="czcc" />
        <use
           height="512"
           width="512"
           transform="translate(240,0)"
           id="use4140-4"
           xlink:href="#path4136-3"
           y="0"
           x="0" />
        <use
           style="fill:#ee2b06;fill-opacity:1"
           height="512"
           width="512"
           transform="translate(240,0)"
           id="use3826-8"
           xlink:href="#path3824-8"
           y="0"
           x="0" />
        <path
           transform="matrix(0.89529196,0,0,-0.28070361,9.631613,602.21132)"
           sodipodi:nodetypes="cccccccc"
           inkscape:connector-curvature="0"
           id="path6443-0"
           d="m 474,452.00001 c 11,40.375 -10,38.00001 -10,38.00001 l -390,0 c 0,0 -23.762656,-30.47517 0,-38.00001 30,-4.75 70,-9.5 140,-9.5 C 244,437.75001 254,414 254,414 c 0,0 100,-4.75 150,4.75 10,0 -20,28.50001 70,33.25001 z"
           style="opacity:0.56243543;fill:#000000;fill-opacity:1;stroke:none;display:inline;filter:url(#filter4030-9)" />
        <g
           id="g6294-4">
          <path
             sodipodi:nodetypes="cccccccc"
             inkscape:connector-curvature="0"
             id="path3757-6"
             d="m 486,368 c 11,85 -10,80.00002 -10,80.00002 l -390,0 c 0,0 -23.762656,-64.15825 0,-80.00002 30,-10 70,-20 140,-20 16,-20 40,-60 40,-60 0,0 100,-10 150,10 10,0 -20,60 70,70 z"
             style="fill:url(#radialGradient4893);fill-opacity:1;stroke:#bb2205;stroke-width:15;stroke-linecap:butt;stroke-linejoin:round;stroke-miterlimit:4;stroke-opacity:1;stroke-dasharray:none" />
          <path
             sodipodi:type="inkscape:offset"
             inkscape:radius="-3.9581714"
             inkscape:original="M 310.25 829.71875 C 284.08181 829.71875 265.60599 831.28518 259.75 831.8125 C 255.85336 838.28556 237.04254 869.33745 221.6875 888.53125 A 9.8595302 9.8595302 0 0 1 214 892.21875 C 146.08143 892.21875 107.91013 901.62536 78.71875 911.25 C 76.354558 913.25845 74.564196 916.85001 73.75 922.875 C 72.848698 929.54457 73.42253 938.28638 74.8125 946.71875 C 76.681821 958.05915 79.282389 966.7602 81.15625 972.53125 L 462.9375 972.53125 C 463.19084 972.16975 463.48004 971.72672 464 970.46875 C 466.39626 964.67134 469.1674 947.42489 465.0625 910.9375 C 445.68453 907.93172 431.20996 902.56999 420.84375 895.28125 C 409.073 887.00494 402.58489 876.35401 399.5625 866.53125 C 396.54011 856.70849 396.65625 847.6875 396.65625 841.90625 C 396.65625 840.97188 396.61439 840.99451 396.59375 840.25 C 373.99913 832.35839 339.37997 829.71875 310.25 829.71875 z "
             style="fill:none;stroke:url(#linearGradient4895);stroke-width:15;stroke-linecap:butt;stroke-linejoin:round;stroke-miterlimit:4;stroke-opacity:1;stroke-dasharray:none"
             id="path4085-0"
             d="m 310.25,833.6875 c -24.54778,0 -41.38841,1.34181 -48.1875,1.9375 -4.81508,7.98075 -22.19696,36.51964 -37.28125,55.375 l -3.09375,-2.46875 -3.09375,-2.46875 c 0.97111,-1.20975 -1.25592,1.40361 -0.21875,0.25 1.03717,-1.15361 -1.31875,1.31262 -0.21875,0.21875 1.1,-1.09387 -1.40938,1.28071 -0.25,0.25 1.15938,-1.03071 -1.46515,1.15184 -0.25,0.1875 1.21515,-0.96434 -1.51712,1.1137 -0.25,0.21875 1.26712,-0.89495 -1.59639,1.01027 -0.28125,0.1875 1.31514,-0.82277 -1.6403,0.90426 -0.28125,0.15625 1.35905,-0.74801 -1.67996,0.82718 -0.28125,0.15625 1.39871,-0.67093 -1.74651,0.71674 -0.3125,0.125 1.43401,-0.59174 -1.77732,0.63571 -0.3125,0.125 1.46482,-0.51071 -1.80357,0.52184 -0.3125,0.0937 1.49107,-0.42809 -1.82515,0.43787 -0.3125,0.0937 1.51265,-0.34412 -1.84201,0.32159 -0.3125,0.0625 1.52951,-0.25909 -1.88535,0.20449 -0.34375,0.0312 1.5416,-0.17324 -1.86137,0.1181 -0.3125,0.0312 1.54887,-0.0869 -1.89505,1.9e-4 -0.34375,0 l 0,3.96875 0,3.96875 c -66.8152,0 -104.18262,9.06733 -133,18.5 -1.268202,1.24658 -2.624596,3.62831 -3.3125,8.71875 -0.809973,5.99374 -0.315753,14.48454 1.03125,22.65625 1.589083,9.64031 3.634829,16.92777 5.375,22.5 l 376.34375,0 c 1.70883,-4.46798 4.37626,-20.99611 0.90625,-54.34375 -18.18312,-3.15385 -32.36166,-8.36123 -42.78125,-15.6875 -12.51797,-8.8017 -19.52713,-20.26786 -22.78125,-30.84375 -3.04,-9.88 -3.06755,-18.6624 -3.0625,-24.46875 -21.75313,-6.94782 -54.64392,-9.53125 -82.46875,-9.53125 z"
             transform="translate(12,-534.36218)" />
          <path
             style="fill:url(#linearGradient4897);fill-opacity:1;stroke:none;display:inline"
             d="M 89.176062,440.14486 C 166.06353,372.62995 508.99041,407.35858 465.47891,439.87068 z"
             id="path6030-3"
             inkscape:connector-curvature="0"
             sodipodi:nodetypes="ccc" />
        </g>
      </g>
    </g>
  </g>
  <g
     inkscape:groupmode="layer"
     id="layer3"
     inkscape:label="Sky"
     style="display:none"
     transform="translate(0,-12)"
     sodipodi:insensitive="true">
    <g
       style="fill:none;stroke:url(#radialGradient7489);stroke-width:6.45469427;stroke-linecap:butt;stroke-linejoin:round;stroke-miterlimit:4;stroke-opacity:1;stroke-dasharray:none"
       id="g3844"
       transform="matrix(2.6453402,0,0,2.6221948,-576.84585,-1070.9586)" />
    <g
       style="fill:none;stroke:url(#radialGradient7503);stroke-width:6.45469427;stroke-linecap:butt;stroke-linejoin:round;stroke-miterlimit:4;stroke-opacity:1;stroke-dasharray:none"
       id="g3852"
       transform="matrix(-1.3226701,-2.2708873,2.2909318,-1.3110974,-513.58854,1363.829)" />
    <g
       transform="matrix(1.2606917,0,0,1.2606917,-624.87225,-102.58873)"
       style="opacity:0.28327589"
       id="use4015">
      <path
         style="fill:#ffffff;fill-opacity:1;stroke:#6e6e6e;stroke-width:3.96607661;stroke-miterlimit:4;stroke-opacity:1;stroke-dasharray:none"
         d="m 701.83599,98.49022 c 8.87285,-3.93036 76.58377,-15.06282 64.29827,37.85382 -6.82933,29.41561 3.13898,-3.73805 0.974,0.55128 28.66615,30.72526 23.59699,70.00424 23.59699,70.00424 l -253.90024,0 c 0,0 -20.47582,-44.97914 28.66616,-62.61802 6.55227,1.57909 -4.09516,-9.57539 4.09517,5.29166 -24.571,-39.68748 45.04681,-70.55552 61.42747,-44.0972 4.09517,-30.86804 81.9033,-35.27776 68.79878,6.4928 z"
         id="path4029"
         inkscape:connector-curvature="0"
         sodipodi:nodetypes="cscccccccc" />
      <path
         sodipodi:nodetypes="cscccccccc"
         inkscape:connector-curvature="0"
         id="path4031"
         d="m 696.98339,104.18613 c 8.21781,-3.37981 71.3053,-10.02488 59.92679,35.47932 -6.32515,25.29514 2.85833,-13.06589 0,-3.79201 21.64371,12.40683 24.27414,64.46428 24.27414,64.46428 l -235.15577,0 c 0,0 -18.96417,-37.99758 26.54985,-53.16565 6.06853,1.3579 -10.74237,-20.32077 5.1551,1.14549 -29.56835,-27.31829 41.04005,-53.86241 56.21139,-31.11031 3.79283,-26.54411 67.2323,-35.35635 63.0385,1.49739 z"
         style="fill:url(#radialGradient4033);fill-opacity:1;stroke:#ffffff;stroke-width:7.93215322;stroke-linecap:round;stroke-linejoin:round;stroke-miterlimit:4;stroke-opacity:1;stroke-dasharray:none" />
    </g>
    <path
       transform="matrix(1.5776022,0,0,1.322031,-547.8923,-161.43314)"
       sodipodi:nodetypes="cscccccccc"
       inkscape:connector-curvature="0"
       id="path6472"
       d="m 701.83599,98.49022 c 8.87285,-3.93036 76.58377,-15.06282 64.29827,37.85382 -6.82933,29.41561 3.13898,-3.73805 0.974,0.55128 28.66615,30.72526 23.59699,70.00424 23.59699,70.00424 l -253.90024,0 c 0,0 -20.47582,-44.97914 28.66616,-62.61802 6.55227,1.57909 -4.09516,-9.57539 4.09517,5.29166 -24.571,-39.68748 45.04681,-70.55552 61.42747,-44.0972 4.09517,-30.86804 81.9033,-35.27776 68.79878,6.4928 z"
       style="fill:#ffffff;fill-opacity:1;stroke:#ffffff;stroke-width:3.46218634;stroke-miterlimit:4;stroke-opacity:1;stroke-dasharray:none;filter:url(#filter4213)" />
    <g
       id="g6474"
       style="opacity:0.64429525">
      <path
         transform="matrix(1.5776022,0,0,1.322031,-547.8923,-161.43314)"
         sodipodi:nodetypes="cscccccccc"
         inkscape:connector-curvature="0"
         id="path4021"
         d="m 701.83599,98.49022 c 8.87285,-3.93036 76.58377,-15.06282 64.29827,37.85382 -6.82933,29.41561 3.13898,-3.73805 0.974,0.55128 28.66615,30.72526 23.59699,70.00424 23.59699,70.00424 l -253.90024,0 c 0,0 -20.47582,-44.97914 28.66616,-62.61802 6.55227,1.57909 -4.09516,-9.57539 4.09517,5.29166 -24.571,-39.68748 45.04681,-70.55552 61.42747,-44.0972 4.09517,-30.86804 81.9033,-35.27776 68.79878,6.4928 z"
         style="fill:#ffffff;fill-opacity:1;stroke:#6e6e6e;stroke-width:3.46218634;stroke-miterlimit:4;stroke-opacity:1;stroke-dasharray:none;filter:url(#filter4213)" />
      <path
         transform="matrix(1.5776022,0,0,1.322031,-547.8923,-161.43314)"
         style="fill:url(#radialGradient4025);fill-opacity:1;stroke:#ffffff;stroke-width:6.92437267;stroke-linecap:round;stroke-linejoin:round;stroke-miterlimit:4;stroke-opacity:1;stroke-dasharray:none;filter:url(#filter4213)"
         d="m 696.98339,104.18613 c 8.21781,-3.37981 71.3053,-10.02488 59.92679,35.47932 -6.32515,25.29514 2.85833,-13.06589 0,-3.79201 21.64371,12.40683 24.27414,64.46428 24.27414,64.46428 l -235.15577,0 c 0,0 -18.96417,-37.99758 26.54985,-53.16565 6.06853,1.3579 -10.74237,-20.32077 5.1551,1.14549 -29.56835,-27.31829 41.04005,-53.86241 56.21139,-31.11031 3.79283,-26.54411 67.2323,-35.35635 63.0385,1.49739 z"
         id="path4023"
         inkscape:connector-curvature="0"
         sodipodi:nodetypes="cscccccccc" />
    </g>
    <g
       id="g4005"
       style="opacity:0.8146552;filter:url(#filter4209)"
       transform="translate(10,-106)">
      <g
         style="fill:none;stroke:#000000;stroke-width:9.78716087;stroke-linecap:butt;stroke-linejoin:round;stroke-miterlimit:4;stroke-opacity:0.51398597;stroke-dasharray:none"
         transform="matrix(1.1289928,-1.9379451,1.9554729,1.1188732,-581.12063,264.85524)"
         id="g8959">
        <path
           id="path8961"
           style="fill:none;stroke:#000000;stroke-width:9.78716087;stroke-linecap:butt;stroke-linejoin:round;stroke-miterlimit:4;stroke-opacity:0.51398597;stroke-dasharray:none"
           d="m 280,472.36218 c 10,10 10,10 10,10 m -10,-10 c -10,10 -10,10 -10,10 m 10,-40 c 10,-10 10,-10 10,-10 m -10,10 c -10,-10 -10,-10 -10,-10 m 10,-5 0,60 m 0,-60 0,60 m 12.99037,-22.49999 c 13.66025,-3.66026 13.66025,-3.66026 13.66025,-3.66026 m -13.66025,3.66026 c 3.66025,13.66025 3.66025,13.66025 3.66025,13.66025 m -29.64101,-28.66025 c -3.66026,-13.66026 -3.66026,-13.66026 -3.66026,-13.66026 m 3.66026,13.66026 c -13.66026,3.66025 -13.66026,3.66025 -13.66026,3.66025 m 0.66988,-11.16025 51.96152,30 m -51.96152,-30 51.96152,30 m -38.97113,-7.5 c -3.66026,13.66025 -3.66026,13.66025 -3.66026,13.66025 m 3.66026,-13.66025 c -13.66026,-3.66026 -13.66026,-3.66026 -13.66026,-3.66026 m 39.64102,-11.33974 c 13.66026,3.66025 13.66026,3.66025 13.66026,3.66025 m -13.66026,-3.66025 c 3.66026,-13.66026 3.66026,-13.66026 3.66026,-13.66026 m 9.33012,6.16026 -51.96152,30 m 51.96152,-30 -51.96152,30"
           inkscape:connector-curvature="0" />
      </g>
      <g
         id="g3866"
         transform="matrix(1.0725841,-1.8411181,1.8577701,1.0629701,-519.12363,260.27804)"
         style="fill:none;stroke:url(#radialGradient4079);stroke-width:7.96054363;stroke-linecap:butt;stroke-linejoin:round;stroke-miterlimit:4;stroke-opacity:1;stroke-dasharray:none">
        <path
           inkscape:connector-curvature="0"
           d="m 280,472.36218 c 10,10 10,10 10,10 m -10,-10 c -10,10 -10,10 -10,10 m 10,-40 c 10,-10 10,-10 10,-10 m -10,10 c -10,-10 -10,-10 -10,-10 m 10,-5 0,60 m 0,-60 0,60 m 12.99037,-22.49999 c 13.66025,-3.66026 13.66025,-3.66026 13.66025,-3.66026 m -13.66025,3.66026 c 3.66025,13.66025 3.66025,13.66025 3.66025,13.66025 m -29.64101,-28.66025 c -3.66026,-13.66026 -3.66026,-13.66026 -3.66026,-13.66026 m 3.66026,13.66026 c -13.66026,3.66025 -13.66026,3.66025 -13.66026,3.66025 m 0.66988,-11.16025 51.96152,30 m -51.96152,-30 51.96152,30 m -38.97113,-7.5 c -3.66026,13.66025 -3.66026,13.66025 -3.66026,13.66025 m 3.66026,-13.66025 c -13.66026,-3.66026 -13.66026,-3.66026 -13.66026,-3.66026 m 39.64102,-11.33974 c 13.66026,3.66025 13.66026,3.66025 13.66026,3.66025 m -13.66026,-3.66025 c 3.66026,-13.66026 3.66026,-13.66026 3.66026,-13.66026 m 9.33012,6.16026 -51.96152,30 m 51.96152,-30 -51.96152,30"
           style="fill:none;stroke:url(#radialGradient7515);stroke-width:7.96054363;stroke-linecap:butt;stroke-linejoin:round;stroke-miterlimit:4;stroke-opacity:1;stroke-dasharray:none"
           id="path3878" />
      </g>
    </g>
    <g
       style="fill:none;stroke:#000000;stroke-width:6.7712574;stroke-linecap:butt;stroke-linejoin:round;stroke-miterlimit:4;stroke-opacity:0.51398597;stroke-dasharray:none"
       transform="matrix(0.92718389,-1.5915349,1.6059296,0.91887318,-615.50293,185.33284)"
       id="g4037">
      <path
         id="path4039"
         style="fill:none;stroke:#000000;stroke-width:6.7712574;stroke-linecap:butt;stroke-linejoin:round;stroke-miterlimit:4;stroke-opacity:0.51398597;stroke-dasharray:none"
         d="m 280,472.36218 c 10,10 10,10 10,10 m -10,-10 c -10,10 -10,10 -10,10 m 10,-40 c 10,-10 10,-10 10,-10 m -10,10 c -10,-10 -10,-10 -10,-10 m 10,-5 0,60 m 0,-60 0,60 m 12.99037,-22.49999 c 13.66025,-3.66026 13.66025,-3.66026 13.66025,-3.66026 m -13.66025,3.66026 c 3.66025,13.66025 3.66025,13.66025 3.66025,13.66025 m -29.64101,-28.66025 c -3.66026,-13.66026 -3.66026,-13.66026 -3.66026,-13.66026 m 3.66026,13.66026 c -13.66026,3.66025 -13.66026,3.66025 -13.66026,3.66025 m 0.66988,-11.16025 51.96152,30 m -51.96152,-30 51.96152,30 m -38.97113,-7.5 c -3.66026,13.66025 -3.66026,13.66025 -3.66026,13.66025 m 3.66026,-13.66025 c -13.66026,-3.66026 -13.66026,-3.66026 -13.66026,-3.66026 m 39.64102,-11.33974 c 13.66026,3.66025 13.66026,3.66025 13.66026,3.66025 m -13.66026,-3.66025 c 3.66026,-13.66026 3.66026,-13.66026 3.66026,-13.66026 m 9.33012,6.16026 -51.96152,30 m 51.96152,-30 -51.96152,30"
         inkscape:connector-curvature="0" />
    </g>
    <g
       id="g4041"
       transform="matrix(0.88085832,-1.5120159,1.5256913,0.87296283,-564.58797,181.57382)"
       style="fill:none;stroke:url(#radialGradient4087);stroke-width:7.12736702;stroke-linecap:butt;stroke-linejoin:round;stroke-miterlimit:4;stroke-opacity:1;stroke-dasharray:none">
      <path
         inkscape:connector-curvature="0"
         d="m 280,472.36218 c 10,10 10,10 10,10 m -10,-10 c -10,10 -10,10 -10,10 m 10,-40 c 10,-10 10,-10 10,-10 m -10,10 c -10,-10 -10,-10 -10,-10 m 10,-5 0,60 m 0,-60 0,60 m 12.99037,-22.49999 c 13.66025,-3.66026 13.66025,-3.66026 13.66025,-3.66026 m -13.66025,3.66026 c 3.66025,13.66025 3.66025,13.66025 3.66025,13.66025 m -29.64101,-28.66025 c -3.66026,-13.66026 -3.66026,-13.66026 -3.66026,-13.66026 m 3.66026,13.66026 c -13.66026,3.66025 -13.66026,3.66025 -13.66026,3.66025 m 0.66988,-11.16025 51.96152,30 m -51.96152,-30 51.96152,30 m -38.97113,-7.5 c -3.66026,13.66025 -3.66026,13.66025 -3.66026,13.66025 m 3.66026,-13.66025 c -13.66026,-3.66026 -13.66026,-3.66026 -13.66026,-3.66026 m 39.64102,-11.33974 c 13.66026,3.66025 13.66026,3.66025 13.66026,3.66025 m -13.66026,-3.66025 c 3.66026,-13.66026 3.66026,-13.66026 3.66026,-13.66026 m 9.33012,6.16026 -51.96152,30 m 51.96152,-30 -51.96152,30"
         style="fill:none;stroke:url(#radialGradient4085);stroke-width:7.12736702;stroke-linecap:butt;stroke-linejoin:round;stroke-miterlimit:4;stroke-opacity:1;stroke-dasharray:none"
         id="path4043" />
    </g>
    <g
       id="g5785"
       transform="translate(-4,32)">
      <g
         id="g4051"
         transform="matrix(1.1289928,-1.9379451,1.9554729,1.1188732,-695.12063,200.85524)"
         style="fill:none;stroke:#000000;stroke-width:6.4506278;stroke-linecap:butt;stroke-linejoin:round;stroke-miterlimit:4;stroke-opacity:0.51398597;stroke-dasharray:none">
        <path
           inkscape:connector-curvature="0"
           d="m 280,472.36218 c 10,10 10,10 10,10 m -10,-10 c -10,10 -10,10 -10,10 m 10,-40 c 10,-10 10,-10 10,-10 m -10,10 c -10,-10 -10,-10 -10,-10 m 10,-5 0,60 m 0,-60 0,60 m 12.99037,-22.49999 c 13.66025,-3.66026 13.66025,-3.66026 13.66025,-3.66026 m -13.66025,3.66026 c 3.66025,13.66025 3.66025,13.66025 3.66025,13.66025 m -29.64101,-28.66025 c -3.66026,-13.66026 -3.66026,-13.66026 -3.66026,-13.66026 m 3.66026,13.66026 c -13.66026,3.66025 -13.66026,3.66025 -13.66026,3.66025 m 0.66988,-11.16025 51.96152,30 m -51.96152,-30 51.96152,30 m -38.97113,-7.5 c -3.66026,13.66025 -3.66026,13.66025 -3.66026,13.66025 m 3.66026,-13.66025 c -13.66026,-3.66026 -13.66026,-3.66026 -13.66026,-3.66026 m 39.64102,-11.33974 c 13.66026,3.66025 13.66026,3.66025 13.66026,3.66025 m -13.66026,-3.66025 c 3.66026,-13.66026 3.66026,-13.66026 3.66026,-13.66026 m 9.33012,6.16026 -51.96152,30 m 51.96152,-30 -51.96152,30"
           style="fill:none;stroke:#000000;stroke-width:6.4506278;stroke-linecap:butt;stroke-linejoin:round;stroke-miterlimit:4;stroke-opacity:0.51398597;stroke-dasharray:none"
           id="path4053" />
      </g>
      <g
         style="fill:none;stroke:url(#radialGradient5793);stroke-width:6.78987551;stroke-linecap:butt;stroke-linejoin:round;stroke-miterlimit:4;stroke-opacity:1;stroke-dasharray:none"
         transform="matrix(1.0725841,-1.8411181,1.8577701,1.0629701,-633.12363,196.27804)"
         id="g4055">
        <path
           id="path4057"
           style="fill:none;stroke:url(#radialGradient5791);stroke-width:6.78987551;stroke-linecap:butt;stroke-linejoin:round;stroke-miterlimit:4;stroke-opacity:1;stroke-dasharray:none"
           d="m 280,472.36218 c 10,10 10,10 10,10 m -10,-10 c -10,10 -10,10 -10,10 m 10,-40 c 10,-10 10,-10 10,-10 m -10,10 c -10,-10 -10,-10 -10,-10 m 10,-5 0,60 m 0,-60 0,60 m 12.99037,-22.49999 c 13.66025,-3.66026 13.66025,-3.66026 13.66025,-3.66026 m -13.66025,3.66026 c 3.66025,13.66025 3.66025,13.66025 3.66025,13.66025 m -29.64101,-28.66025 c -3.66026,-13.66026 -3.66026,-13.66026 -3.66026,-13.66026 m 3.66026,13.66026 c -13.66026,3.66025 -13.66026,3.66025 -13.66026,3.66025 m 0.66988,-11.16025 51.96152,30 m -51.96152,-30 51.96152,30 m -38.97113,-7.5 c -3.66026,13.66025 -3.66026,13.66025 -3.66026,13.66025 m 3.66026,-13.66025 c -13.66026,-3.66026 -13.66026,-3.66026 -13.66026,-3.66026 m 39.64102,-11.33974 c 13.66026,3.66025 13.66026,3.66025 13.66026,3.66025 m -13.66026,-3.66025 c 3.66026,-13.66026 3.66026,-13.66026 3.66026,-13.66026 m 9.33012,6.16026 -51.96152,30 m 51.96152,-30 -51.96152,30"
           inkscape:connector-curvature="0" />
      </g>
    </g>
  </g>
  <g
     inkscape:groupmode="layer"
     id="layer7"
     inkscape:label="New Sky"
     style="display:inline">
    <text
       xml:space="preserve"
       style="font-size:40px;font-style:normal;font-weight:normal;line-height:125%;letter-spacing:0px;word-spacing:0px;fill:#000000;fill-opacity:1;stroke:none;font-family:Sans"
       x="537"
       y="346"
       id="text4228"
       sodipodi:linespacing="125%"><tspan
         sodipodi:role="line"
         id="tspan4230"
         x="537"
         y="346"></tspan></text>
    <g
       id="layer4-3"
       inkscape:label="Black"
       style="display:none"
       transform="translate(349.26016,-22.908164)">
      <rect
         style="color:#000000;fill:#000000;fill-opacity:1;stroke:none;stroke-width:20;marker:none;visibility:visible;display:inline;overflow:visible;enable-background:accumulate"
         id="rect4079-6"
         width="514"
         height="514"
         x="-7.1054274e-15"
         y="-2" />
      <rect
         style="color:#000000;fill:none;stroke:none;stroke-width:20;marker:none;visibility:visible;display:inline;overflow:visible;enable-background:accumulate"
         id="rect4077-5"
         width="300"
         height="410"
         x="0"
         y="102"
         ry="0" />
    </g>
    <g
       style="display:none"
       inkscape:label="Blue"
       id="g4118-5"
       transform="translate(349.26016,-22.908164)">
      <rect
         y="-2"
         x="-7.1054274e-15"
         height="514"
         width="514"
         id="rect4120-8"
         style="color:#000000;fill:#49439e;fill-opacity:1;stroke:none;stroke-width:20;marker:none;visibility:visible;display:inline;overflow:visible;enable-background:accumulate" />
      <rect
         ry="0"
         y="102"
         x="0"
         height="410"
         width="300"
         id="rect4122-1"
         style="color:#000000;fill:none;stroke:none;stroke-width:20;marker:none;visibility:visible;display:inline;overflow:visible;enable-background:accumulate" />
    </g>
    <g
       inkscape:label="BG"
       id="layer1-4"
       transform="translate(349.26016,-563.27034)"
       style="display:none">
      <rect
         style="opacity:0.60147603;color:#000000;fill:url(#linearGradient3911);fill-opacity:1;fill-rule:nonzero;stroke:none;stroke-width:5;marker:none;visibility:visible;display:inline;overflow:visible;enable-background:accumulate"
         id="rect3903"
         width="514"
         height="514"
         x="0"
         y="538.36218" />
    </g>
    <g
       id="g5149"
       transform="translate(80,6)">
      <path
         style="opacity:0.36915917;fill:#ffffff;fill-opacity:1;stroke:#000000;stroke-width:11.47673225;stroke-miterlimit:4;stroke-opacity:0.51372549;stroke-dasharray:none"
         d="m 683.48505,60.769154 c 8.94944,-3.965151 77.24488,-15.19613 64.85333,38.188841 -6.88828,29.675955 3.16608,-3.771133 0.98241,0.556158 28.91362,30.997187 23.8007,70.623807 23.8007,70.623807 l -256.09209,0 c 0,0 -20.65258,-45.37723 28.91363,-63.17222 6.60882,1.59307 -4.13052,-9.660135 4.13051,5.3385 -24.7831,-40.038731 45.4357,-71.179963 61.95777,-44.487478 4.13051,-31.141233 82.61034,-35.589981 69.39269,6.550265 z"
         id="path4919"
         inkscape:connector-curvature="0"
         sodipodi:nodetypes="cscccccccc" />
      <path
         sodipodi:nodetypes="cscccccccc"
         inkscape:connector-curvature="0"
         id="path4921"
         d="m 678.59056,66.515474 c 8.28874,-3.409722 71.92084,-10.113602 60.44411,35.793326 -6.37975,25.51901 2.88301,-13.181529 0,-3.825576 21.83056,12.516636 24.4837,65.034816 24.4837,65.034816 l -237.1858,0 c 0,0 -19.12789,-38.33388 26.77904,-53.63619 6.12092,1.36992 -10.8351,-20.500615 5.1996,1.15563 -29.82359,-27.560066 41.39434,-54.339108 56.69665,-31.385643 3.82558,-26.779042 67.8127,-35.669266 63.58269,1.510641 z"
         style="opacity:0.36915917;fill:url(#radialGradient5153);fill-opacity:1;stroke:#ffffff;stroke-width:7.65115499;stroke-linecap:round;stroke-linejoin:round;stroke-miterlimit:4;stroke-opacity:1;stroke-dasharray:none" />
    </g>
    <g
       style="opacity:0.36915917;fill:none;stroke:url(#radialGradient4937);stroke-width:6.45469427;stroke-linecap:butt;stroke-linejoin:round;stroke-miterlimit:4;stroke-opacity:1;stroke-dasharray:none"
       id="g4923"
       transform="matrix(2.0239908,0,0,2.0062819,45.192865,-706.38657)" />
    <g
       style="opacity:0.36915917;fill:none;stroke:url(#radialGradient4939);stroke-width:6.45469427;stroke-linecap:butt;stroke-linejoin:round;stroke-miterlimit:4;stroke-opacity:1;stroke-dasharray:none"
       id="g4925"
       transform="matrix(-1.0119954,-1.737491,1.7528274,-1.0031409,93.592013,1156.5071)" />
    <g
       id="layer3-2"
       inkscape:label="Sky"
       style="display:inline"
       transform="translate(343.26016,-34.908164)">
      <path
         sodipodi:nodetypes="cscccccccc"
         inkscape:connector-curvature="0"
         id="path6317"
         d="m 237.39707,33.708004 c 11.69686,-5.182422 100.95847,-19.861224 84.76281,49.912518 -9.00294,38.786238 4.13804,-4.928841 1.28399,0.726894 37.78988,40.513084 31.10733,92.304764 31.10733,92.304764 l -334.710359,0 c 0,0 -26.9927716,-59.30768 37.789879,-82.565596 8.637687,2.082129 -5.398554,-12.625722 5.398555,6.977376 C 30.637949,48.733651 122.41337,8.0323018 144.00759,42.919173 149.40614,2.2178233 251.97867,-3.5966552 234.7033,51.480318 z"
         style="fill:#ffffff;fill-opacity:1;stroke:#000000;stroke-width:15;stroke-miterlimit:4;stroke-opacity:0.51372549;stroke-dasharray:none" />
      <path
         style="fill:url(#radialGradient4973);fill-opacity:1;stroke:#ffffff;stroke-width:10;stroke-linecap:round;stroke-linejoin:round;stroke-miterlimit:4;stroke-opacity:1;stroke-dasharray:none"
         d="M 231.00001,41.2184 C 241.83334,36.76192 325,28 310,88 c -8.33829,33.35315 3.76807,-17.228157 0,-5 28.53237,16.359149 32,85 32,85 l -310,0 c 0,0 -25,-50.10208 35,-70.102079 8,1.79047 -14.161395,-26.79415 6.795841,1.510397 -38.979206,-36.020794 54.102079,-71.020794 74.102079,-41.020794 5,-35 88.63067,-46.619454 83.10208,1.974396 z"
         id="path2987"
         inkscape:connector-curvature="0"
         sodipodi:nodetypes="cscccccccc" />
      <g
         style="fill:none;stroke:url(#radialGradient4975);stroke-width:6.45469427;stroke-linecap:butt;stroke-linejoin:round;stroke-miterlimit:4;stroke-opacity:1;stroke-dasharray:none"
         id="g3844-6"
         transform="matrix(2.6453402,0,0,2.6221948,-596.84585,-968.95857)" />
      <g
         style="fill:none;stroke:url(#radialGradient4977);stroke-width:6.45469427;stroke-linecap:butt;stroke-linejoin:round;stroke-miterlimit:4;stroke-opacity:1;stroke-dasharray:none"
         id="g3852-9"
         transform="matrix(-1.3226701,-2.2708873,2.2909318,-1.3110974,-533.58854,1465.829)" />
      <g
         id="g8959-4"
         transform="matrix(1.4883231,-2.5552961,2.5778513,1.475301,-1453.8927,253.0702)"
         style="fill:none;stroke:#000000;stroke-width:7.42341518;stroke-linecap:butt;stroke-linejoin:round;stroke-miterlimit:4;stroke-opacity:0.51398597;stroke-dasharray:none">
        <path
           inkscape:connector-curvature="0"
           d="m 280,472.36218 c 10,10 10,10 10,10 m -10,-10 c -10,10 -10,10 -10,10 m 10,-40 c 10,-10 10,-10 10,-10 m -10,10 c -10,-10 -10,-10 -10,-10 m 10,-5 0,60 m 0,-60 0,60 m 12.99037,-22.49999 c 13.66025,-3.66026 13.66025,-3.66026 13.66025,-3.66026 m -13.66025,3.66026 c 3.66025,13.66025 3.66025,13.66025 3.66025,13.66025 m -29.64101,-28.66025 c -3.66026,-13.66026 -3.66026,-13.66026 -3.66026,-13.66026 m 3.66026,13.66026 c -13.66026,3.66025 -13.66026,3.66025 -13.66026,3.66025 m 0.66988,-11.16025 51.96152,30 m -51.96152,-30 51.96152,30 m -38.97113,-7.5 c -3.66026,13.66025 -3.66026,13.66025 -3.66026,13.66025 m 3.66026,-13.66025 c -13.66026,-3.66026 -13.66026,-3.66026 -13.66026,-3.66026 m 39.64102,-11.33974 c 13.66026,3.66025 13.66026,3.66025 13.66026,3.66025 m -13.66026,-3.66025 c 3.66026,-13.66026 3.66026,-13.66026 3.66026,-13.66026 m 9.33012,6.16026 -51.96152,30 m 51.96152,-30 -51.96152,30"
           style="fill:none;stroke:#000000;stroke-width:7.42341518;stroke-linecap:butt;stroke-linejoin:round;stroke-miterlimit:4;stroke-opacity:0.51398597;stroke-dasharray:none"
           id="path8961-1" />
      </g>
      <g
         style="fill:none;stroke:url(#radialGradient4981);stroke-width:6.03795433;stroke-linecap:butt;stroke-linejoin:round;stroke-miterlimit:4;stroke-opacity:1;stroke-dasharray:none"
         transform="matrix(1.4139609,-2.427624,2.4490521,1.4015894,-1372.1636,247.03489)"
         id="g3866-3">
        <path
           id="path3878-7"
           style="fill:none;stroke:url(#radialGradient4979);stroke-width:6.03795433;stroke-linecap:butt;stroke-linejoin:round;stroke-miterlimit:4;stroke-opacity:1;stroke-dasharray:none"
           d="m 280,472.36218 c 10,10 10,10 10,10 m -10,-10 c -10,10 -10,10 -10,10 m 10,-40 c 10,-10 10,-10 10,-10 m -10,10 c -10,-10 -10,-10 -10,-10 m 10,-5 0,60 m 0,-60 0,60 m 12.99037,-22.49999 c 13.66025,-3.66026 13.66025,-3.66026 13.66025,-3.66026 m -13.66025,3.66026 c 3.66025,13.66025 3.66025,13.66025 3.66025,13.66025 m -29.64101,-28.66025 c -3.66026,-13.66026 -3.66026,-13.66026 -3.66026,-13.66026 m 3.66026,13.66026 c -13.66026,3.66025 -13.66026,3.66025 -13.66026,3.66025 m 0.66988,-11.16025 51.96152,30 m -51.96152,-30 51.96152,30 m -38.97113,-7.5 c -3.66026,13.66025 -3.66026,13.66025 -3.66026,13.66025 m 3.66026,-13.66025 c -13.66026,-3.66026 -13.66026,-3.66026 -13.66026,-3.66026 m 39.64102,-11.33974 c 13.66026,3.66025 13.66026,3.66025 13.66026,3.66025 m -13.66026,-3.66025 c 3.66026,-13.66026 3.66026,-13.66026 3.66026,-13.66026 m 9.33012,6.16026 -51.96152,30 m 51.96152,-30 -51.96152,30"
           inkscape:connector-curvature="0" />
      </g>
    </g>
  </g>
  <g
     inkscape:groupmode="layer"
     id="layer6"
     inkscape:label="Title"
     style="display:inline">
    <text
       xml:space="preserve"
       style="font-size:78.43863678px;font-style:normal;font-variant:normal;font-weight:normal;font-stretch:normal;text-align:start;line-height:125%;letter-spacing:0px;word-spacing:0px;writing-mode:lr-tb;text-anchor:start;fill:#ee2b06;fill-opacity:1;stroke:#d8d8d8;stroke-width:1;stroke-opacity:1;display:inline;font-family:Roboto;-inkscape-font-specification:Roboto"
       x="136.57957"
       y="348.28113"
       id="text3922"
       sodipodi:linespacing="125%"
       transform="scale(1.0142149,0.98598434)"><tspan
         sodipodi:role="line"
         id="tspan3924"
         x="136.57957"
         y="348.28113"
         style="font-size:78.43863678px;font-style:normal;font-variant:normal;font-weight:800;font-stretch:normal;text-align:start;line-height:125%;writing-mode:lr-tb;text-anchor:start;stroke:#d8d8d8;stroke-width:1;stroke-opacity:1;font-family:Open Sans;-inkscape-font-specification:Open Sans Ultra-Bold" /></text>
    <flowRoot
       xml:space="preserve"
       id="flowRoot3892"
       style="font-size:40px;font-style:normal;font-weight:normal;line-height:125%;letter-spacing:0px;word-spacing:0px;fill:#000000;fill-opacity:1;stroke:none;font-family:Sans"
       transform="translate(-24,-100)"><flowRegion
         id="flowRegion3894"><rect
           id="rect3896"
           width="12"
           height="46"
           x="852"
           y="458" /></flowRegion><flowPara
         id="flowPara3898"></flowPara></flowRoot>    <text
       xml:space="preserve"
       style="font-size:40px;font-style:normal;font-weight:normal;line-height:125%;letter-spacing:0px;word-spacing:0px;fill:#000000;fill-opacity:1;stroke:none;font-family:Sans"
       x="317"
       y="215"
       id="text3900"
       sodipodi:linespacing="125%"><tspan
         sodipodi:role="line"
         id="tspan3902"
         x="317"
         y="215"></tspan></text>
    <text
       xml:space="preserve"
       style="font-size:40px;font-style:normal;font-weight:normal;line-height:125%;letter-spacing:0px;word-spacing:0px;fill:#000000;fill-opacity:1;stroke:none;font-family:Sans"
       x="107"
       y="257"
       id="text4983"
       sodipodi:linespacing="125%"><tspan
         sodipodi:role="line"
         id="tspan4985"
         x="107"
         y="257"
         style="font-size:130px;font-style:normal;font-variant:normal;font-weight:800;font-stretch:normal;text-align:start;line-height:125%;letter-spacing:-5px;writing-mode:lr-tb;text-anchor:start;fill:#ee2b06;fill-opacity:1;font-family:Open Sans;-inkscape-font-specification:Open Sans Ultra-Bold"
         dx="0 0">C<tspan
   style="letter-spacing:-6px"
   id="tspan5127">a</tspan>r</tspan></text>
    <text
       xml:space="preserve"
       style="font-size:40px;font-style:normal;font-weight:normal;line-height:125%;letter-spacing:0px;word-spacing:0px;fill:#000000;fill-opacity:1;stroke:none;font-family:Sans"
       x="145"
       y="338"
       id="text4991"
       sodipodi:linespacing="125%"><tspan
         sodipodi:role="line"
         id="tspan4993"
         x="145"
         y="338"
         style="font-size:80px;font-style:normal;font-variant:normal;font-weight:800;font-stretch:normal;text-align:start;line-height:125%;letter-spacing:-4px;writing-mode:lr-tb;text-anchor:start;fill:#ee2b06;fill-opacity:1;font-family:Open Sans;-inkscape-font-specification:Open Sans Ultra-Bold"><tspan
   style="letter-spacing:-6px"
   id="tspan5081">W</tspan><tspan
   id="tspan5125"
   style="letter-spacing:-3px">e</tspan>ather</tspan></text>
  </g>
  <g
     inkscape:groupmode="layer"
     id="layer5"
     inkscape:label="Safe frame"
     transform="translate(0,-12)"
     style="display:none"
     sodipodi:insensitive="true">
    <rect
       y="37"
       x="25"
       height="450"
       width="974"
       id="rect3061"
       style="color:#000000;fill:none;stroke:#e27e7e;stroke-width:50;stroke-miterlimit:4;stroke-opacity:1;stroke-dasharray:none;marker:none;visibility:visible;display:inline;overflow:visible;enable-background:accumulate" />
  </g>
</svg>
