<?xml version="1.0" encoding="UTF-8" standalone="no"?>
<!-- Created with Inkscape (http://www.inkscape.org/) -->

<svg
   xmlns:dc="http://purl.org/dc/elements/1.1/"
   xmlns:cc="http://creativecommons.org/ns#"
   xmlns:rdf="http://www.w3.org/1999/02/22-rdf-syntax-ns#"
   xmlns:svg="http://www.w3.org/2000/svg"
   xmlns="http://www.w3.org/2000/svg"
   xmlns:xlink="http://www.w3.org/1999/xlink"
   xmlns:sodipodi="http://sodipodi.sourceforge.net/DTD/sodipodi-0.dtd"
   xmlns:inkscape="http://www.inkscape.org/namespaces/inkscape"
   width="1024"
   height="500"
   id="svg2"
   version="1.1"
   inkscape:version="0.48.2 r9819"
   sodipodi:docname="feature_graphic.svg"
   inkscape:export-filename="heathelper/res/drawable/_originals/feature_graphic.png"
   inkscape:export-xdpi="90"
   inkscape:export-ydpi="90">
  <defs
     id="defs4">
    <linearGradient
       id="linearGradient4316">
      <stop
         style="stop-color:#791701;stop-opacity:1;"
         offset="0"
         id="stop4318" />
      <stop
         style="stop-color:#791701;stop-opacity:0;"
         offset="1"
         id="stop4320" />
    </linearGradient>
    <linearGradient
       id="linearGradient4291">
      <stop
         style="stop-color:#4f5cd5;stop-opacity:1;"
         offset="0"
         id="stop4293" />
      <stop
         style="stop-color:#ffffff;stop-opacity:0;"
         offset="1"
         id="stop4295" />
    </linearGradient>
    <linearGradient
       id="linearGradient6115">
      <stop
         id="stop6117"
         offset="0"
         style="stop-color:#ffffff;stop-opacity:0;" />
      <stop
         id="stop6119"
         offset="1"
         style="stop-color:#ee2b06;stop-opacity:0.69230771;" />
    </linearGradient>
    <linearGradient
       id="linearGradient4156">
      <stop
         style="stop-color:#393939;stop-opacity:1;"
         offset="0"
         id="stop4158" />
      <stop
         style="stop-color:#949494;stop-opacity:1;"
         offset="1"
         id="stop4160" />
    </linearGradient>
    <linearGradient
       id="linearGradient7737">
      <stop
         id="stop7739"
         offset="0"
         style="stop-color:#bb2205;stop-opacity:0;" />
      <stop
         id="stop7741"
         offset="1"
         style="stop-color:#fa664a;stop-opacity:1;" />
    </linearGradient>
    <linearGradient
       id="linearGradient6437">
      <stop
         style="stop-color:#ffffff;stop-opacity:1;"
         offset="0"
         id="stop6439" />
      <stop
         style="stop-color:#c3c9ff;stop-opacity:1;"
         offset="1"
         id="stop6441" />
    </linearGradient>
    <linearGradient
       id="linearGradient5736">
      <stop
         id="stop5738"
         offset="0"
         style="stop-color:#ffffff;stop-opacity:1;" />
      <stop
         id="stop5740"
         offset="1"
         style="stop-color:#f3f4ff;stop-opacity:1;" />
    </linearGradient>
    <linearGradient
       id="linearGradient4049">
      <stop
         style="stop-color:#e02906;stop-opacity:1;"
         offset="0"
         id="stop4051" />
      <stop
         style="stop-color:#ee2b06;stop-opacity:1;"
         offset="1"
         id="stop4053" />
    </linearGradient>
    <linearGradient
       id="linearGradient3905">
      <stop
         style="stop-color:#6c8c8c;stop-opacity:1;"
         offset="0"
         id="stop3907" />
      <stop
         style="stop-color:#dbe3e3;stop-opacity:1;"
         offset="1"
         id="stop3909" />
    </linearGradient>
    <radialGradient
       inkscape:collect="always"
       xlink:href="#linearGradient5736"
       id="radialGradient7401"
       gradientUnits="userSpaceOnUse"
       gradientTransform="matrix(1.5182684,-0.7658339,0.49299482,0.99469399,-359.07888,202.01262)"
       spreadMethod="reflect"
       cx="265.1395"
       cy="472.22134"
       fx="265.1395"
       fy="472.22134"
       r="29.877983" />
    <radialGradient
       inkscape:collect="always"
       xlink:href="#linearGradient5736"
       id="radialGradient7409"
       gradientUnits="userSpaceOnUse"
       gradientTransform="matrix(1.5182684,-0.7658339,0.49299482,0.99469399,-359.07888,202.01262)"
       spreadMethod="reflect"
       cx="265.1395"
       cy="472.22134"
       fx="265.1395"
       fy="472.22134"
       r="29.877983" />
    <radialGradient
       inkscape:collect="always"
       xlink:href="#linearGradient5736"
       id="radialGradient7415"
       gradientUnits="userSpaceOnUse"
       gradientTransform="matrix(1.5182684,-0.7658339,0.49299482,0.99469399,-359.07888,202.01262)"
       spreadMethod="reflect"
       cx="265.1395"
       cy="472.22134"
       fx="265.1395"
       fy="472.22134"
       r="29.877983" />
    <radialGradient
       inkscape:collect="always"
       xlink:href="#linearGradient5736"
       id="radialGradient7429"
       gradientUnits="userSpaceOnUse"
       gradientTransform="matrix(1.5182684,-0.7658339,0.49299482,0.99469399,-359.07888,202.01262)"
       spreadMethod="reflect"
       cx="265.1395"
       cy="472.22134"
       fx="265.1395"
       fy="472.22134"
       r="29.877983" />
    <radialGradient
       inkscape:collect="always"
       xlink:href="#linearGradient5736"
       id="radialGradient7431"
       gradientUnits="userSpaceOnUse"
       gradientTransform="matrix(1.5182684,-0.7658339,0.49299482,0.99469399,-359.07888,202.01262)"
       spreadMethod="reflect"
       cx="265.1395"
       cy="472.22134"
       fx="265.1395"
       fy="472.22134"
       r="29.877983" />
    <radialGradient
       inkscape:collect="always"
       xlink:href="#linearGradient5736"
       id="radialGradient7489"
       gradientUnits="userSpaceOnUse"
       gradientTransform="matrix(1.5182684,-0.7658339,0.49299482,0.99469399,-359.07888,202.01262)"
       spreadMethod="reflect"
       cx="265.1395"
       cy="472.22134"
       fx="265.1395"
       fy="472.22134"
       r="29.877983" />
    <radialGradient
       inkscape:collect="always"
       xlink:href="#linearGradient5736"
       id="radialGradient7503"
       gradientUnits="userSpaceOnUse"
       gradientTransform="matrix(1.5182684,-0.7658339,0.49299482,0.99469399,-359.07888,202.01262)"
       spreadMethod="reflect"
       cx="265.1395"
       cy="472.22134"
       fx="265.1395"
       fy="472.22134"
       r="29.877983" />
    <radialGradient
       inkscape:collect="always"
       xlink:href="#linearGradient5736"
       id="radialGradient7575"
       gradientUnits="userSpaceOnUse"
       gradientTransform="matrix(1.5182684,-0.7658339,0.49299482,0.99469399,-359.07888,202.01262)"
       spreadMethod="reflect"
       cx="265.1395"
       cy="472.22134"
       fx="265.1395"
       fy="472.22134"
       r="29.877983" />
    <radialGradient
       inkscape:collect="always"
       xlink:href="#linearGradient5736"
       id="radialGradient7589"
       gradientUnits="userSpaceOnUse"
       gradientTransform="matrix(1.5182684,-0.7658339,0.49299482,0.99469399,-359.07888,202.01262)"
       spreadMethod="reflect"
       cx="265.1395"
       cy="472.22134"
       fx="265.1395"
       fy="472.22134"
       r="29.877983" />
    <radialGradient
       inkscape:collect="always"
       xlink:href="#linearGradient5736"
       id="radialGradient7603"
       gradientUnits="userSpaceOnUse"
       gradientTransform="matrix(1.5182684,-0.7658339,0.49299482,0.99469399,-359.07888,202.01262)"
       spreadMethod="reflect"
       cx="265.1395"
       cy="472.22134"
       fx="265.1395"
       fy="472.22134"
       r="29.877983" />
    <radialGradient
       inkscape:collect="always"
       xlink:href="#linearGradient5736"
       id="radialGradient7605"
       gradientUnits="userSpaceOnUse"
       gradientTransform="matrix(1.5182684,-0.7658339,0.49299482,0.99469399,-359.07888,202.01262)"
       spreadMethod="reflect"
       cx="265.1395"
       cy="472.22134"
       fx="265.1395"
       fy="472.22134"
       r="29.877983" />
    <radialGradient
       inkscape:collect="always"
       xlink:href="#linearGradient5736"
       id="radialGradient7759"
       gradientUnits="userSpaceOnUse"
       gradientTransform="matrix(1.5182684,-0.7658339,0.49299482,0.99469399,-359.07888,202.01262)"
       spreadMethod="reflect"
       cx="265.1395"
       cy="472.22134"
       fx="265.1395"
       fy="472.22134"
       r="29.877983" />
    <filter
       inkscape:collect="always"
       id="filter4030"
       x="-0.17793363"
       width="1.3558673"
       y="-0.95345384"
       height="2.9069078"
       color-interpolation-filters="sRGB">
      <feGaussianBlur
         inkscape:collect="always"
         stdDeviation="30.674929"
         id="feGaussianBlur4032" />
    </filter>
    <radialGradient
       inkscape:collect="always"
       xlink:href="#linearGradient4049"
       id="radialGradient6318"
       gradientUnits="userSpaceOnUse"
       gradientTransform="matrix(0.8294323,-0.01292672,0.0064006,0.41068957,49.714729,-24.083895)"
       cx="284.1098"
       cy="1036.6869"
       fx="284.1098"
       fy="1036.6869"
       r="211.8744" />
    <linearGradient
       inkscape:collect="always"
       xlink:href="#linearGradient7737"
       id="linearGradient6320"
       gradientUnits="userSpaceOnUse"
       x1="235.51039"
       y1="985.58527"
       x2="300.65216"
       y2="850.44348" />
    <linearGradient
       inkscape:collect="always"
       xlink:href="#linearGradient6115"
       id="linearGradient6322"
       gradientUnits="userSpaceOnUse"
       gradientTransform="matrix(1.2943811,0,0,0.83017666,38.91975,303.70255)"
       x1="171.46796"
       y1="174.26328"
       x2="177.99316"
       y2="96.382355" />
    <radialGradient
       inkscape:collect="always"
       xlink:href="#linearGradient6437"
       id="radialGradient4025"
       gradientUnits="userSpaceOnUse"
       gradientTransform="matrix(1.0924469,-0.71231147,0.38505797,0.59029493,208.16908,-44.530428)"
       cx="248.13567"
       cy="642.3017"
       fx="248.13567"
       fy="642.3017"
       r="159.7061" />
    <radialGradient
       inkscape:collect="always"
       xlink:href="#linearGradient6437"
       id="radialGradient4033"
       gradientUnits="userSpaceOnUse"
       gradientTransform="matrix(1.0924469,-0.71231147,0.38505797,0.59029493,208.16908,-44.530428)"
       cx="248.13567"
       cy="642.3017"
       fx="248.13567"
       fy="642.3017"
       r="159.7061" />
    <radialGradient
       inkscape:collect="always"
       xlink:href="#linearGradient5736"
       id="radialGradient4047"
       gradientUnits="userSpaceOnUse"
       gradientTransform="matrix(1.5182684,-0.7658339,0.49299482,0.99469399,-359.07888,202.01262)"
       spreadMethod="reflect"
       cx="265.1395"
       cy="472.22134"
       fx="265.1395"
       fy="472.22134"
       r="29.877983" />
    <radialGradient
       inkscape:collect="always"
       xlink:href="#linearGradient5736"
       id="radialGradient4061"
       gradientUnits="userSpaceOnUse"
       gradientTransform="matrix(1.5182684,-0.7658339,0.49299482,0.99469399,-359.07888,202.01262)"
       spreadMethod="reflect"
       cx="265.1395"
       cy="472.22134"
       fx="265.1395"
       fy="472.22134"
       r="29.877983" />
    <radialGradient
       inkscape:collect="always"
       xlink:href="#linearGradient5736"
       id="radialGradient4079"
       gradientUnits="userSpaceOnUse"
       gradientTransform="matrix(1.5182684,-0.7658339,0.49299482,0.99469399,-359.07888,202.01262)"
       spreadMethod="reflect"
       cx="265.1395"
       cy="472.22134"
       fx="265.1395"
       fy="472.22134"
       r="29.877983" />
    <radialGradient
       inkscape:collect="always"
       xlink:href="#linearGradient5736"
       id="radialGradient4087"
       gradientUnits="userSpaceOnUse"
       gradientTransform="matrix(1.5182684,-0.7658339,0.49299482,0.99469399,-359.07888,202.01262)"
       spreadMethod="reflect"
       cx="265.1395"
       cy="472.22134"
       fx="265.1395"
       fy="472.22134"
       r="29.877983" />
    <filter
       inkscape:collect="always"
       id="filter4189">
      <feGaussianBlur
         inkscape:collect="always"
         stdDeviation="1.3981924"
         id="feGaussianBlur4191" />
    </filter>
    <filter
       inkscape:collect="always"
       id="filter4193">
      <feGaussianBlur
         inkscape:collect="always"
         stdDeviation="1.3981924"
         id="feGaussianBlur4195" />
    </filter>
    <filter
       inkscape:collect="always"
       id="filter4209">
      <feGaussianBlur
         inkscape:collect="always"
         stdDeviation="0.80916826"
         id="feGaussianBlur4211" />
    </filter>
    <filter
       inkscape:collect="always"
       id="filter4213">
      <feGaussianBlur
         inkscape:collect="always"
         stdDeviation="0.95974761"
         id="feGaussianBlur4215" />
    </filter>
    <filter
       inkscape:collect="always"
       id="filter4273">
      <feGaussianBlur
         inkscape:collect="always"
         stdDeviation="0.29239575"
         id="feGaussianBlur4275" />
    </filter>
    <linearGradient
       inkscape:collect="always"
       xlink:href="#linearGradient4291"
       id="linearGradient4300"
       gradientUnits="userSpaceOnUse"
       x1="506"
       y1="32"
       x2="519"
       y2="281" />
    <filter
       inkscape:collect="always"
       id="filter4310"
       x="-0.068706986"
       width="1.137414"
       y="-0.23948665"
       height="1.4789733">
      <feGaussianBlur
         inkscape:collect="always"
         stdDeviation="31.233051"
         id="feGaussianBlur4312" />
    </filter>
    <linearGradient
       inkscape:collect="always"
       xlink:href="#linearGradient4316"
       id="linearGradient4322"
       x1="526.5"
       y1="209.5"
       x2="533.5"
       y2="501.5"
       gradientUnits="userSpaceOnUse"
       gradientTransform="translate(0,638.36218)" />
    <filter
       inkscape:collect="always"
       id="filter4668">
      <feGaussianBlur
         inkscape:collect="always"
         stdDeviation="0.14300707"
         id="feGaussianBlur4670" />
    </filter>
    <filter
       inkscape:collect="always"
       id="filter4672">
      <feGaussianBlur
         inkscape:collect="always"
         stdDeviation="0.14300707"
         id="feGaussianBlur4674" />
    </filter>
    <radialGradient
       inkscape:collect="always"
       xlink:href="#linearGradient5736"
       id="radialGradient4688"
       gradientUnits="userSpaceOnUse"
       gradientTransform="matrix(1.5182684,-0.7658339,0.49299482,0.99469399,-359.07888,202.01262)"
       spreadMethod="reflect"
       cx="265.1395"
       cy="472.22134"
       fx="265.1395"
       fy="472.22134"
       r="29.877983" />
    <radialGradient
       inkscape:collect="always"
       xlink:href="#linearGradient5736"
       id="radialGradient6448"
       gradientUnits="userSpaceOnUse"
       gradientTransform="matrix(1.5182684,-0.7658339,0.49299482,0.99469399,-359.07888,202.01262)"
       spreadMethod="reflect"
       cx="265.1395"
       cy="472.22134"
       fx="265.1395"
       fy="472.22134"
       r="29.877983" />
    <radialGradient
       inkscape:collect="always"
       xlink:href="#linearGradient5736"
       id="radialGradient6450"
       gradientUnits="userSpaceOnUse"
       gradientTransform="matrix(1.5182684,-0.7658339,0.49299482,0.99469399,-359.07888,202.01262)"
       spreadMethod="reflect"
       cx="265.1395"
       cy="472.22134"
       fx="265.1395"
       fy="472.22134"
       r="29.877983" />
    <radialGradient
       inkscape:collect="always"
       xlink:href="#linearGradient5736"
       id="radialGradient6458"
       gradientUnits="userSpaceOnUse"
       gradientTransform="matrix(1.5182684,-0.7658339,0.49299482,0.99469399,-359.07888,202.01262)"
       spreadMethod="reflect"
       cx="265.1395"
       cy="472.22134"
       fx="265.1395"
       fy="472.22134"
       r="29.877983" />
    <radialGradient
       inkscape:collect="always"
       xlink:href="#linearGradient5736"
       id="radialGradient6460"
       gradientUnits="userSpaceOnUse"
       gradientTransform="matrix(1.5182684,-0.7658339,0.49299482,0.99469399,-359.07888,202.01262)"
       spreadMethod="reflect"
       cx="265.1395"
       cy="472.22134"
       fx="265.1395"
       fy="472.22134"
       r="29.877983" />
    <linearGradient
       inkscape:collect="always"
       xlink:href="#linearGradient4156"
       id="linearGradient6468"
       gradientUnits="userSpaceOnUse"
       gradientTransform="translate(0,6)"
       x1="169.52365"
       y1="463.66882"
       x2="165"
       y2="482" />
    <radialGradient
       inkscape:collect="always"
       xlink:href="#linearGradient6437"
       id="radialGradient6505"
       gradientUnits="userSpaceOnUse"
       gradientTransform="matrix(1.0924469,-0.71231147,0.38505797,0.59029493,208.16908,-44.530428)"
       cx="248.13567"
       cy="642.3017"
       fx="248.13567"
       fy="642.3017"
       r="159.7061" />
    <radialGradient
       inkscape:collect="always"
       xlink:href="#linearGradient6437"
       id="radialGradient6513"
       gradientUnits="userSpaceOnUse"
       gradientTransform="matrix(1.0924469,-0.71231147,0.38505797,0.59029493,208.16908,-44.530428)"
       cx="248.13567"
       cy="642.3017"
       fx="248.13567"
       fy="642.3017"
       r="159.7061" />
  </defs>
  <sodipodi:namedview
     id="base"
     pagecolor="#ffffff"
     bordercolor="#666666"
     borderopacity="1.0"
     inkscape:pageopacity="1"
     inkscape:pageshadow="2"
     inkscape:zoom="0.5"
     inkscape:cx="525.44051"
     inkscape:cy="222.80892"
     inkscape:document-units="px"
     inkscape:current-layer="layer3"
     showgrid="false"
     inkscape:window-width="1308"
     inkscape:window-height="1022"
     inkscape:window-x="1005"
     inkscape:window-y="222"
     inkscape:window-maximized="0">
    <inkscape:grid
       type="xygrid"
       id="grid2985"
       empspacing="5"
       visible="true"
       enabled="true"
       snapvisiblegridlinesonly="true"
       color="#0000ff"
       opacity="0.52156863"
       empcolor="#7c7cff"
       empopacity="0.23921569" />
  </sodipodi:namedview>
  <metadata
     id="metadata7">
    <rdf:RDF>
      <cc:Work
         rdf:about="">
        <dc:format>image/svg+xml</dc:format>
        <dc:type
           rdf:resource="http://purl.org/dc/dcmitype/StillImage" />
        <dc:title></dc:title>
      </cc:Work>
    </rdf:RDF>
  </metadata>
  <g
     inkscape:groupmode="layer"
     id="layer4"
     inkscape:label="Black"
     style="display:none"
     sodipodi:insensitive="true"
     transform="translate(0,-12)">
    <rect
       style="color:#000000;fill:#000000;fill-opacity:1;stroke:none;stroke-width:20;marker:none;visibility:visible;display:inline;overflow:visible;enable-background:accumulate"
       id="rect4079"
       width="514"
       height="514"
       x="-7.1054274e-15"
       y="-2" />
    <rect
       style="color:#000000;fill:none;stroke:none;stroke-width:20;marker:none;visibility:visible;display:inline;overflow:visible;enable-background:accumulate"
       id="rect4077"
       width="300"
       height="410"
       x="0"
       y="102"
       ry="0" />
  </g>
  <g
     style="display:none"
     inkscape:label="Blue"
     id="g4118"
     inkscape:groupmode="layer"
     sodipodi:insensitive="true"
     transform="translate(0,-12)">
    <rect
       y="-2"
       x="-7.1054274e-15"
       height="514"
       width="514"
       id="rect4120"
       style="color:#000000;fill:#49439e;fill-opacity:1;stroke:none;stroke-width:20;marker:none;visibility:visible;display:inline;overflow:visible;enable-background:accumulate" />
    <rect
       ry="0"
       y="102"
       x="0"
       height="410"
       width="300"
       id="rect4122"
       style="color:#000000;fill:none;stroke:none;stroke-width:20;marker:none;visibility:visible;display:inline;overflow:visible;enable-background:accumulate" />
  </g>
  <g
     inkscape:label="BG"
     inkscape:groupmode="layer"
     id="layer1"
     transform="translate(0,-552.36218)"
     style="display:inline"
     sodipodi:insensitive="true">
    <path
       style="opacity:0.51293137;fill:url(#linearGradient4300);fill-opacity:1;stroke:#000000;stroke-width:1px;stroke-linecap:butt;stroke-linejoin:miter;stroke-opacity:1;display:inline;filter:url(#filter4310)"
       d="m -23,251 c 690,-56 1091,11 1091,11 L 1055,-49 -23,-51 z"
       id="path4289"
       inkscape:connector-curvature="0"
       transform="translate(0,552.36218)" />
    <path
       style="opacity:0.73706863;fill:url(#linearGradient4322);fill-opacity:1;stroke:none;display:inline"
       d="m -24,920.36218 c 839,85.00002 1070,-16 1070,-16 l 4,241.00002 -1074,2 z"
       id="path4314"
       inkscape:connector-curvature="0" />
  </g>
  <g
     inkscape:groupmode="layer"
     id="layer2"
     inkscape:label="Car"
     style="display:inline"
     transform="translate(0,-12)"
     sodipodi:insensitive="true">
    <g
       id="g6305"
       transform="matrix(0.75856701,0,0,0.75840333,545.75441,71.34193)">
      <path
         sodipodi:nodetypes="czcc"
         inkscape:connector-curvature="0"
         id="path4136"
         d="m 203.2,473.8995 c 0,0 0,30.1005 -35.2,30.1005 -35.2,0 -35.2,-30.1005 -35.2,-30.1005 z"
         style="color:#000000;fill:#141414;fill-opacity:1;fill-rule:nonzero;stroke:#000000;stroke-width:13.18417358;stroke-linecap:round;stroke-linejoin:miter;stroke-miterlimit:4;stroke-opacity:1;stroke-dasharray:none;stroke-dashoffset:0;marker:none;visibility:visible;display:inline;overflow:visible;enable-background:accumulate"
         inkscape:export-filename="heathelper/res/drawable-xhdpi/path3824.png"
         inkscape:export-xdpi="16.879999"
         inkscape:export-ydpi="16.879999" />
      <path
         inkscape:export-ydpi="16.879999"
         inkscape:export-xdpi="16.879999"
         inkscape:export-filename="heathelper/res/drawable-xhdpi/path3824.png"
         style="color:#000000;fill:#646464;fill-opacity:1;fill-rule:nonzero;stroke:url(#linearGradient6468);stroke-width:13.18417358;stroke-linecap:round;stroke-linejoin:miter;stroke-miterlimit:4;stroke-opacity:1;stroke-dasharray:none;stroke-dashoffset:0;marker:none;visibility:visible;display:inline;overflow:visible;enable-background:accumulate"
         d="m 207.2,469.8995 c 0,0 0,30.1005 -35.2,30.1005 -35.2,0 -35.2,-30.1005 -35.2,-30.1005 z"
         id="path3824"
         inkscape:connector-curvature="0"
         sodipodi:nodetypes="czcc" />
      <use
         height="512"
         width="512"
         transform="translate(240,0)"
         id="use4140"
         xlink:href="#path4136"
         y="0"
         x="0" />
      <use
         style="fill:#ee2b06;fill-opacity:1"
         height="512"
         width="512"
         transform="translate(240,0)"
         id="use3826"
         xlink:href="#path3824"
         y="0"
         x="0" />
      <path
         transform="matrix(0.89529196,0,0,-0.28070361,9.631613,602.21132)"
         sodipodi:nodetypes="cccccccc"
         inkscape:connector-curvature="0"
         id="path6443"
         d="m 474,452.00001 c 11,40.375 -10,38.00001 -10,38.00001 l -390,0 c 0,0 -23.762656,-30.47517 0,-38.00001 30,-4.75 70,-9.5 140,-9.5 C 244,437.75001 254,414 254,414 c 0,0 100,-4.75 150,4.75 10,0 -20,28.50001 70,33.25001 z"
         style="opacity:0.56243543;fill:#000000;fill-opacity:1;stroke:none;display:inline;filter:url(#filter4030)" />
      <g
         id="g6294">
        <path
           sodipodi:nodetypes="cccccccc"
           inkscape:connector-curvature="0"
           id="path3757"
           d="m 486,368 c 11,85 -10,80.00002 -10,80.00002 l -390,0 c 0,0 -23.762656,-64.15825 0,-80.00002 30,-10 70,-20 140,-20 16,-20 40,-60 40,-60 0,0 100,-10 150,10 10,0 -20,60 70,70 z"
           style="fill:url(#radialGradient6318);fill-opacity:1;stroke:#bb2205;stroke-width:19.77626038;stroke-linecap:butt;stroke-linejoin:round;stroke-miterlimit:4;stroke-opacity:1;stroke-dasharray:none" />
        <path
           sodipodi:type="inkscape:offset"
           inkscape:radius="-3.9581714"
           inkscape:original="M 310.25 829.71875 C 284.08181 829.71875 265.60599 831.28518 259.75 831.8125 C 255.85336 838.28556 237.04254 869.33745 221.6875 888.53125 A 9.8595302 9.8595302 0 0 1 214 892.21875 C 146.08143 892.21875 107.91013 901.62536 78.71875 911.25 C 76.354558 913.25845 74.564196 916.85001 73.75 922.875 C 72.848698 929.54457 73.42253 938.28638 74.8125 946.71875 C 76.681821 958.05915 79.282389 966.7602 81.15625 972.53125 L 462.9375 972.53125 C 463.19084 972.16975 463.48004 971.72672 464 970.46875 C 466.39626 964.67134 469.1674 947.42489 465.0625 910.9375 C 445.68453 907.93172 431.20996 902.56999 420.84375 895.28125 C 409.073 887.00494 402.58489 876.35401 399.5625 866.53125 C 396.54011 856.70849 396.65625 847.6875 396.65625 841.90625 C 396.65625 840.97188 396.61439 840.99451 396.59375 840.25 C 373.99913 832.35839 339.37997 829.71875 310.25 829.71875 z "
           style="fill:none;stroke:url(#linearGradient6320);stroke-width:19.77626038;stroke-linecap:butt;stroke-linejoin:round;stroke-miterlimit:4;stroke-opacity:1;stroke-dasharray:none"
           id="path4085"
           d="m 310.25,833.6875 c -24.54778,0 -41.38841,1.34181 -48.1875,1.9375 -4.81508,7.98075 -22.19696,36.51964 -37.28125,55.375 l -3.09375,-2.46875 -3.09375,-2.46875 c 0.97111,-1.20975 -1.25592,1.40361 -0.21875,0.25 1.03717,-1.15361 -1.31875,1.31262 -0.21875,0.21875 1.1,-1.09387 -1.40938,1.28071 -0.25,0.25 1.15938,-1.03071 -1.46515,1.15184 -0.25,0.1875 1.21515,-0.96434 -1.51712,1.1137 -0.25,0.21875 1.26712,-0.89495 -1.59639,1.01027 -0.28125,0.1875 1.31514,-0.82277 -1.6403,0.90426 -0.28125,0.15625 1.35905,-0.74801 -1.67996,0.82718 -0.28125,0.15625 1.39871,-0.67093 -1.74651,0.71674 -0.3125,0.125 1.43401,-0.59174 -1.77732,0.63571 -0.3125,0.125 1.46482,-0.51071 -1.80357,0.52184 -0.3125,0.0937 1.49107,-0.42809 -1.82515,0.43787 -0.3125,0.0937 1.51265,-0.34412 -1.84201,0.32159 -0.3125,0.0625 1.52951,-0.25909 -1.88535,0.20449 -0.34375,0.0312 1.5416,-0.17324 -1.86137,0.1181 -0.3125,0.0312 1.54887,-0.0869 -1.89505,1.9e-4 -0.34375,0 l 0,3.96875 0,3.96875 c -66.8152,0 -104.18262,9.06733 -133,18.5 -1.268202,1.24658 -2.624596,3.62831 -3.3125,8.71875 -0.809973,5.99374 -0.315753,14.48454 1.03125,22.65625 1.589083,9.64031 3.634829,16.92777 5.375,22.5 l 376.34375,0 c 1.70883,-4.46798 4.37626,-20.99611 0.90625,-54.34375 -18.18312,-3.15385 -32.36166,-8.36123 -42.78125,-15.6875 -12.51797,-8.8017 -19.52713,-20.26786 -22.78125,-30.84375 -3.04,-9.88 -3.06755,-18.6624 -3.0625,-24.46875 -21.75313,-6.94782 -54.64392,-9.53125 -82.46875,-9.53125 z"
           transform="translate(12,-534.36218)" />
        <path
           style="fill:url(#linearGradient6322);fill-opacity:1;stroke:none;display:inline"
           d="M 89.176062,440.14486 C 166.06353,372.62995 508.99041,407.35858 465.47891,439.87068 z"
           id="path6030"
           inkscape:connector-curvature="0"
           sodipodi:nodetypes="ccc" />
      </g>
    </g>
  </g>
  <g
     inkscape:groupmode="layer"
     id="layer3"
     inkscape:label="Sky"
     style="display:inline"
     transform="translate(0,-12)"
     sodipodi:insensitive="true">
    <g
       transform="matrix(1.2606917,0,0,1.2606917,-588.87225,-0.588733)"
       style="opacity:0.28327589"
       id="use4015">
      <path
         style="fill:#ffffff;fill-opacity:1;stroke:#6e6e6e;stroke-width:3.96607661;stroke-miterlimit:4;stroke-opacity:1;stroke-dasharray:none"
         d="m 701.83599,98.49022 c 8.87285,-3.93036 76.58377,-15.06282 64.29827,37.85382 -6.82933,29.41561 3.13898,-3.73805 0.974,0.55128 28.66615,30.72526 23.59699,70.00424 23.59699,70.00424 l -253.90024,0 c 0,0 -20.47582,-44.97914 28.66616,-62.61802 6.55227,1.57909 -4.09516,-9.57539 4.09517,5.29166 -24.571,-39.68748 45.04681,-70.55552 61.42747,-44.0972 4.09517,-30.86804 81.9033,-35.27776 68.79878,6.4928 z"
         id="path4029"
         inkscape:connector-curvature="0"
         sodipodi:nodetypes="cscccccccc" />
      <path
         sodipodi:nodetypes="cscccccccc"
         inkscape:connector-curvature="0"
         id="path4031"
         d="m 696.98339,104.18613 c 8.21781,-3.37981 71.3053,-10.02488 59.92679,35.47932 -6.32515,25.29514 2.85833,-13.06589 0,-3.79201 21.64371,12.40683 24.27414,64.46428 24.27414,64.46428 l -235.15577,0 c 0,0 -18.96417,-37.99758 26.54985,-53.16565 6.06853,1.3579 -10.74237,-20.32077 5.1551,1.14549 -29.56835,-27.31829 41.04005,-53.86241 56.21139,-31.11031 3.79283,-26.54411 67.2323,-35.35635 63.0385,1.49739 z"
         style="fill:url(#radialGradient4033);fill-opacity:1;stroke:#ffffff;stroke-width:7.93215322;stroke-linecap:round;stroke-linejoin:round;stroke-miterlimit:4;stroke-opacity:1;stroke-dasharray:none" />
    </g>
    <path
       transform="matrix(1.5621119,0,0,1.322031,-483.57701,-39.433141)"
       sodipodi:nodetypes="cscccccccc"
       inkscape:connector-curvature="0"
       id="path6499"
       d="m 701.83599,98.49022 c 8.87285,-3.93036 76.58377,-15.06282 64.29827,37.85382 -6.82933,29.41561 3.13898,-3.73805 0.974,0.55128 28.66615,30.72526 23.59699,70.00424 23.59699,70.00424 l -253.90024,0 c 0,0 -20.47582,-44.97914 28.66616,-62.61802 6.55227,1.57909 -4.09516,-9.57539 4.09517,5.29166 -24.571,-39.68748 45.04681,-70.55552 61.42747,-44.0972 4.09517,-30.86804 81.9033,-35.27776 68.79878,6.4928 z"
       style="fill:#ffffff;fill-opacity:1;stroke:#ffffff;stroke-width:3.47931004;stroke-miterlimit:4;stroke-opacity:1;stroke-dasharray:none;filter:url(#filter4213)" />
    <g
       id="g6509"
       style="opacity:0.64224135"
       transform="translate(-40,0)">
      <path
         transform="matrix(1.5621119,0,0,1.322031,-443.57701,-39.433141)"
         sodipodi:nodetypes="cscccccccc"
         inkscape:connector-curvature="0"
         id="path4021"
         d="m 701.83599,98.49022 c 8.87285,-3.93036 76.58377,-15.06282 64.29827,37.85382 -6.82933,29.41561 3.13898,-3.73805 0.974,0.55128 28.66615,30.72526 23.59699,70.00424 23.59699,70.00424 l -253.90024,0 c 0,0 -20.47582,-44.97914 28.66616,-62.61802 6.55227,1.57909 -4.09516,-9.57539 4.09517,5.29166 -24.571,-39.68748 45.04681,-70.55552 61.42747,-44.0972 4.09517,-30.86804 81.9033,-35.27776 68.79878,6.4928 z"
         style="fill:#ffffff;fill-opacity:1;stroke:#6e6e6e;stroke-width:3.47931004;stroke-miterlimit:4;stroke-opacity:1;stroke-dasharray:none;filter:url(#filter4213)" />
      <path
         transform="matrix(1.5621119,0,0,1.322031,-443.57701,-39.433141)"
         style="fill:url(#radialGradient6513);fill-opacity:1;stroke:#ffffff;stroke-width:6.95862007;stroke-linecap:round;stroke-linejoin:round;stroke-miterlimit:4;stroke-opacity:1;stroke-dasharray:none;filter:url(#filter4213)"
         d="m 696.98339,104.18613 c 8.21781,-3.37981 71.3053,-10.02488 59.92679,35.47932 -6.32515,25.29514 2.85833,-13.06589 0,-3.79201 21.64371,12.40683 24.27414,64.46428 24.27414,64.46428 l -235.15577,0 c 0,0 -18.96417,-37.99758 26.54985,-53.16565 6.06853,1.3579 -10.74237,-20.32077 5.1551,1.14549 -29.56835,-27.31829 41.04005,-53.86241 56.21139,-31.11031 3.79283,-26.54411 67.2323,-35.35635 63.0385,1.49739 z"
         id="path4023"
         inkscape:connector-curvature="0"
         sodipodi:nodetypes="cscccccccc" />
    </g>
    <g
       style="fill:none;stroke:url(#radialGradient7489);stroke-width:6.45469427;stroke-linecap:butt;stroke-linejoin:round;stroke-miterlimit:4;stroke-opacity:1;stroke-dasharray:none"
       id="g3844"
       transform="matrix(2.6453402,0,0,2.6221948,-596.84585,-968.95857)" />
    <g
       style="fill:none;stroke:url(#radialGradient7503);stroke-width:6.45469427;stroke-linecap:butt;stroke-linejoin:round;stroke-miterlimit:4;stroke-opacity:1;stroke-dasharray:none"
       id="g3852"
       transform="matrix(-1.3226701,-2.2708873,2.2909318,-1.3110974,-533.58854,1465.829)" />
    <g
       id="g6452"
       transform="translate(44,-20)">
      <g
         id="g4037"
         transform="matrix(0.92718389,-1.5915349,1.6059296,0.91887318,-579.50293,267.33284)"
         style="fill:none;stroke:#000000;stroke-width:6.7712574;stroke-linecap:butt;stroke-linejoin:round;stroke-miterlimit:4;stroke-opacity:0.51398597;stroke-dasharray:none">
        <path
           inkscape:connector-curvature="0"
           d="m 280,472.36218 c 10,10 10,10 10,10 m -10,-10 c -10,10 -10,10 -10,10 m 10,-40 c 10,-10 10,-10 10,-10 m -10,10 c -10,-10 -10,-10 -10,-10 m 10,-5 0,60 m 0,-60 0,60 m 12.99037,-22.49999 c 13.66025,-3.66026 13.66025,-3.66026 13.66025,-3.66026 m -13.66025,3.66026 c 3.66025,13.66025 3.66025,13.66025 3.66025,13.66025 m -29.64101,-28.66025 c -3.66026,-13.66026 -3.66026,-13.66026 -3.66026,-13.66026 m 3.66026,13.66026 c -13.66026,3.66025 -13.66026,3.66025 -13.66026,3.66025 m 0.66988,-11.16025 51.96152,30 m -51.96152,-30 51.96152,30 m -38.97113,-7.5 c -3.66026,13.66025 -3.66026,13.66025 -3.66026,13.66025 m 3.66026,-13.66025 c -13.66026,-3.66026 -13.66026,-3.66026 -13.66026,-3.66026 m 39.64102,-11.33974 c 13.66026,3.66025 13.66026,3.66025 13.66026,3.66025 m -13.66026,-3.66025 c 3.66026,-13.66026 3.66026,-13.66026 3.66026,-13.66026 m 9.33012,6.16026 -51.96152,30 m 51.96152,-30 -51.96152,30"
           style="fill:none;stroke:#000000;stroke-width:6.7712574;stroke-linecap:butt;stroke-linejoin:round;stroke-miterlimit:4;stroke-opacity:0.51398597;stroke-dasharray:none"
           id="path4039" />
      </g>
      <g
         style="fill:none;stroke:url(#radialGradient6460);stroke-width:7.12736702;stroke-linecap:butt;stroke-linejoin:round;stroke-miterlimit:4;stroke-opacity:1;stroke-dasharray:none"
         transform="matrix(0.88085832,-1.5120159,1.5256913,0.87296283,-528.58797,263.57382)"
         id="g4041">
        <path
           id="path4043"
           style="fill:none;stroke:url(#radialGradient6458);stroke-width:7.12736702;stroke-linecap:butt;stroke-linejoin:round;stroke-miterlimit:4;stroke-opacity:1;stroke-dasharray:none"
           d="m 280,472.36218 c 10,10 10,10 10,10 m -10,-10 c -10,10 -10,10 -10,10 m 10,-40 c 10,-10 10,-10 10,-10 m -10,10 c -10,-10 -10,-10 -10,-10 m 10,-5 0,60 m 0,-60 0,60 m 12.99037,-22.49999 c 13.66025,-3.66026 13.66025,-3.66026 13.66025,-3.66026 m -13.66025,3.66026 c 3.66025,13.66025 3.66025,13.66025 3.66025,13.66025 m -29.64101,-28.66025 c -3.66026,-13.66026 -3.66026,-13.66026 -3.66026,-13.66026 m 3.66026,13.66026 c -13.66026,3.66025 -13.66026,3.66025 -13.66026,3.66025 m 0.66988,-11.16025 51.96152,30 m -51.96152,-30 51.96152,30 m -38.97113,-7.5 c -3.66026,13.66025 -3.66026,13.66025 -3.66026,13.66025 m 3.66026,-13.66025 c -13.66026,-3.66026 -13.66026,-3.66026 -13.66026,-3.66026 m 39.64102,-11.33974 c 13.66026,3.66025 13.66026,3.66025 13.66026,3.66025 m -13.66026,-3.66025 c 3.66026,-13.66026 3.66026,-13.66026 3.66026,-13.66026 m 9.33012,6.16026 -51.96152,30 m 51.96152,-30 -51.96152,30"
           inkscape:connector-curvature="0" />
      </g>
    </g>
    <g
       id="g6442"
       transform="translate(60,0)">
      <g
         id="g4051"
         transform="matrix(1.1289928,-1.9379451,1.9554729,1.1188732,-659.12063,282.85524)"
         style="fill:none;stroke:#000000;stroke-width:6.4506278;stroke-linecap:butt;stroke-linejoin:round;stroke-miterlimit:4;stroke-opacity:0.51398597;stroke-dasharray:none">
        <path
           inkscape:connector-curvature="0"
           d="m 280,472.36218 c 10,10 10,10 10,10 m -10,-10 c -10,10 -10,10 -10,10 m 10,-40 c 10,-10 10,-10 10,-10 m -10,10 c -10,-10 -10,-10 -10,-10 m 10,-5 0,60 m 0,-60 0,60 m 12.99037,-22.49999 c 13.66025,-3.66026 13.66025,-3.66026 13.66025,-3.66026 m -13.66025,3.66026 c 3.66025,13.66025 3.66025,13.66025 3.66025,13.66025 m -29.64101,-28.66025 c -3.66026,-13.66026 -3.66026,-13.66026 -3.66026,-13.66026 m 3.66026,13.66026 c -13.66026,3.66025 -13.66026,3.66025 -13.66026,3.66025 m 0.66988,-11.16025 51.96152,30 m -51.96152,-30 51.96152,30 m -38.97113,-7.5 c -3.66026,13.66025 -3.66026,13.66025 -3.66026,13.66025 m 3.66026,-13.66025 c -13.66026,-3.66026 -13.66026,-3.66026 -13.66026,-3.66026 m 39.64102,-11.33974 c 13.66026,3.66025 13.66026,3.66025 13.66026,3.66025 m -13.66026,-3.66025 c 3.66026,-13.66026 3.66026,-13.66026 3.66026,-13.66026 m 9.33012,6.16026 -51.96152,30 m 51.96152,-30 -51.96152,30"
           style="fill:none;stroke:#000000;stroke-width:6.4506278;stroke-linecap:butt;stroke-linejoin:round;stroke-miterlimit:4;stroke-opacity:0.51398597;stroke-dasharray:none"
           id="path4053" />
      </g>
      <g
         style="fill:none;stroke:url(#radialGradient6450);stroke-width:6.78987551;stroke-linecap:butt;stroke-linejoin:round;stroke-miterlimit:4;stroke-opacity:1;stroke-dasharray:none"
         transform="matrix(1.0725841,-1.8411181,1.8577701,1.0629701,-597.12363,278.27804)"
         id="g4055">
        <path
           id="path4057"
           style="fill:none;stroke:url(#radialGradient6448);stroke-width:6.78987551;stroke-linecap:butt;stroke-linejoin:round;stroke-miterlimit:4;stroke-opacity:1;stroke-dasharray:none"
           d="m 280,472.36218 c 10,10 10,10 10,10 m -10,-10 c -10,10 -10,10 -10,10 m 10,-40 c 10,-10 10,-10 10,-10 m -10,10 c -10,-10 -10,-10 -10,-10 m 10,-5 0,60 m 0,-60 0,60 m 12.99037,-22.49999 c 13.66025,-3.66026 13.66025,-3.66026 13.66025,-3.66026 m -13.66025,3.66026 c 3.66025,13.66025 3.66025,13.66025 3.66025,13.66025 m -29.64101,-28.66025 c -3.66026,-13.66026 -3.66026,-13.66026 -3.66026,-13.66026 m 3.66026,13.66026 c -13.66026,3.66025 -13.66026,3.66025 -13.66026,3.66025 m 0.66988,-11.16025 51.96152,30 m -51.96152,-30 51.96152,30 m -38.97113,-7.5 c -3.66026,13.66025 -3.66026,13.66025 -3.66026,13.66025 m 3.66026,-13.66025 c -13.66026,-3.66026 -13.66026,-3.66026 -13.66026,-3.66026 m 39.64102,-11.33974 c 13.66026,3.66025 13.66026,3.66025 13.66026,3.66025 m -13.66026,-3.66025 c 3.66026,-13.66026 3.66026,-13.66026 3.66026,-13.66026 m 9.33012,6.16026 -51.96152,30 m 51.96152,-30 -51.96152,30"
           inkscape:connector-curvature="0" />
      </g>
    </g>
  </g>
  <g
     inkscape:groupmode="layer"
     id="layer6"
     inkscape:label="Title"
     sodipodi:insensitive="true">
    <text
       sodipodi:linespacing="125%"
       id="text4071"
       y="326"
       x="112"
       style="font-size:144px;font-style:normal;font-variant:normal;font-weight:normal;font-stretch:normal;text-align:start;line-height:125%;letter-spacing:0px;word-spacing:0px;writing-mode:lr-tb;text-anchor:start;opacity:0.47844831;fill:#7f1601;fill-opacity:0.87999998;stroke:none;display:inline;filter:url(#filter4189);font-family:Roboto;-inkscape-font-specification:Roboto"
       xml:space="preserve"
       transform="matrix(1.1377114,0,0,1.1377114,-39.823334,-63.995798)"><tspan
         y="326"
         x="112"
         id="tspan4073"
         sodipodi:role="line">Car</tspan></text>
    <text
       xml:space="preserve"
       style="font-size:163.83044434px;font-style:normal;font-variant:normal;font-weight:normal;font-stretch:normal;text-align:start;line-height:125%;letter-spacing:0px;word-spacing:0px;writing-mode:lr-tb;text-anchor:start;fill:#ee2b06;fill-opacity:1;stroke:none;display:inline;font-family:Roboto;-inkscape-font-specification:Roboto"
       x="87.600342"
       y="302.34726"
       id="text3918"
       sodipodi:linespacing="125%"><tspan
         sodipodi:role="line"
         id="tspan3920"
         x="87.600342"
         y="302.34726">Car</tspan></text>
    <text
       sodipodi:linespacing="125%"
       id="text4412"
       y="302.34726"
       x="87.600342"
       style="font-size:163.83044434px;font-style:normal;font-variant:normal;font-weight:normal;font-stretch:normal;text-align:start;line-height:125%;letter-spacing:0px;word-spacing:0px;writing-mode:lr-tb;text-anchor:start;fill:none;stroke:#ffffff;stroke-width:3;stroke-miterlimit:4;stroke-opacity:1;stroke-dasharray:none;display:inline;filter:url(#filter4668);font-family:Roboto;-inkscape-font-specification:Roboto"
       xml:space="preserve"><tspan
         y="302.34726"
         x="87.600342"
         id="tspan4414"
         sodipodi:role="line">Car</tspan></text>
    <text
       sodipodi:linespacing="125%"
       id="text4075"
       y="388"
       x="192"
       style="font-size:72px;font-style:normal;font-variant:normal;font-weight:normal;font-stretch:normal;text-align:start;line-height:125%;letter-spacing:0px;word-spacing:0px;writing-mode:lr-tb;text-anchor:start;opacity:0.47844831;fill:#7f1601;fill-opacity:0.87999998;stroke:none;display:inline;filter:url(#filter4193);font-family:Roboto;-inkscape-font-specification:Roboto"
       xml:space="preserve"
       transform="matrix(1.1049115,0,0,1.0741565,-33.62198,-43.076301)"><tspan
         y="388"
         x="192"
         id="tspan4077"
         sodipodi:role="line">Weather</tspan></text>
    <text
       xml:space="preserve"
       style="font-size:78.43863678px;font-style:normal;font-variant:normal;font-weight:normal;font-stretch:normal;text-align:start;line-height:125%;letter-spacing:0px;word-spacing:0px;writing-mode:lr-tb;text-anchor:start;fill:#ee2b06;fill-opacity:1;stroke:none;display:inline;font-family:Roboto;-inkscape-font-specification:Roboto"
       x="176.01894"
       y="374.65076"
       id="text3922"
       sodipodi:linespacing="125%"
       transform="scale(1.0142149,0.98598434)"><tspan
         sodipodi:role="line"
         id="tspan3924"
         x="176.01894"
         y="374.65076">Weather</tspan></text>
    <text
       transform="matrix(1.0142149,0,0,0.98598437,24,0)"
       sodipodi:linespacing="125%"
       id="text4416"
       y="374.65076"
       x="152.35532"
       style="font-size:78.43863678px;font-style:normal;font-variant:normal;font-weight:normal;font-stretch:normal;text-align:start;line-height:125%;letter-spacing:0px;word-spacing:0px;writing-mode:lr-tb;text-anchor:start;fill:none;stroke:#ffffff;stroke-width:3;stroke-miterlimit:4;stroke-opacity:1;stroke-dasharray:none;display:inline;filter:url(#filter4672);font-family:Roboto;-inkscape-font-specification:Roboto"
       xml:space="preserve"><tspan
         y="374.65076"
         x="152.35532"
         id="tspan4418"
         sodipodi:role="line">Weather</tspan></text>
  </g>
  <g
     inkscape:groupmode="layer"
     id="layer5"
     inkscape:label="Safe frame"
     transform="translate(0,-12)"
     style="display:none"
     sodipodi:insensitive="true">
    <rect
       y="37"
       x="25"
       height="450"
       width="974"
       id="rect3061"
       style="color:#000000;fill:none;stroke:#e27e7e;stroke-width:50;stroke-miterlimit:4;stroke-opacity:1;stroke-dasharray:none;marker:none;visibility:visible;display:inline;overflow:visible;enable-background:accumulate" />
  </g>
</svg>
