<?xml version="1.0" encoding="UTF-8" standalone="no"?>
<!-- Created with Inkscape (http://www.inkscape.org/) -->

<svg
   xmlns:dc="http://purl.org/dc/elements/1.1/"
   xmlns:cc="http://creativecommons.org/ns#"
   xmlns:rdf="http://www.w3.org/1999/02/22-rdf-syntax-ns#"
   xmlns:svg="http://www.w3.org/2000/svg"
   xmlns="http://www.w3.org/2000/svg"
   xmlns:xlink="http://www.w3.org/1999/xlink"
   xmlns:sodipodi="http://sodipodi.sourceforge.net/DTD/sodipodi-0.dtd"
   xmlns:inkscape="http://www.inkscape.org/namespaces/inkscape"
   width="150"
   height="150"
   id="svg2"
   version="1.1"
   inkscape:version="0.48.4 r9939"
   sodipodi:docname="snow.svg"
   inkscape:export-filename="heathelper/res/drawable-mdpi/snow_indicator.png"
   inkscape:export-xdpi="30"
   inkscape:export-ydpi="30">
  <defs
     id="defs4">
    <linearGradient
       id="linearGradient6115">
      <stop
         id="stop6117"
         offset="0"
         style="stop-color:#ffffff;stop-opacity:0;" />
      <stop
         id="stop6119"
         offset="1"
         style="stop-color:#ee2b06;stop-opacity:0.69230771;" />
    </linearGradient>
    <linearGradient
       id="linearGradient4156">
      <stop
         style="stop-color:#393939;stop-opacity:1;"
         offset="0"
         id="stop4158" />
      <stop
         style="stop-color:#949494;stop-opacity:1;"
         offset="1"
         id="stop4160" />
    </linearGradient>
    <linearGradient
       id="linearGradient7737">
      <stop
         id="stop7739"
         offset="0"
         style="stop-color:#bb2205;stop-opacity:0;" />
      <stop
         id="stop7741"
         offset="1"
         style="stop-color:#fa664a;stop-opacity:1;" />
    </linearGradient>
    <linearGradient
       id="linearGradient6437">
      <stop
         style="stop-color:#ffffff;stop-opacity:1;"
         offset="0"
         id="stop6439" />
      <stop
         style="stop-color:#c3c9ff;stop-opacity:1;"
         offset="1"
         id="stop6441" />
    </linearGradient>
    <linearGradient
       id="linearGradient5736">
      <stop
         id="stop5738"
         offset="0"
         style="stop-color:#ffffff;stop-opacity:1;" />
      <stop
         id="stop5740"
         offset="1"
         style="stop-color:#f3f4ff;stop-opacity:1;" />
    </linearGradient>
    <linearGradient
       id="linearGradient4049">
      <stop
         style="stop-color:#e02906;stop-opacity:1;"
         offset="0"
         id="stop4051" />
      <stop
         style="stop-color:#ee2b06;stop-opacity:1;"
         offset="1"
         id="stop4053" />
    </linearGradient>
    <linearGradient
       id="linearGradient3905">
      <stop
         style="stop-color:#6c8c8c;stop-opacity:1;"
         offset="0"
         id="stop3907" />
      <stop
         style="stop-color:#dbe3e3;stop-opacity:1;"
         offset="1"
         id="stop3909" />
    </linearGradient>
    <linearGradient
       inkscape:collect="always"
       xlink:href="#linearGradient3905"
       id="linearGradient3911"
       x1="90.384621"
       y1="-121.38522"
       x2="380"
       y2="512"
       gradientUnits="userSpaceOnUse"
       gradientTransform="matrix(0.77878787,0,0,0.77878787,77.878787,606.89552)" />
    <radialGradient
       inkscape:collect="always"
       xlink:href="#linearGradient5736"
       id="radialGradient7401"
       gradientUnits="userSpaceOnUse"
       gradientTransform="matrix(1.5182684,-0.7658339,0.49299482,0.99469399,-359.07888,202.01262)"
       spreadMethod="reflect"
       cx="265.1395"
       cy="472.22134"
       fx="265.1395"
       fy="472.22134"
       r="29.877983" />
    <radialGradient
       inkscape:collect="always"
       xlink:href="#linearGradient5736"
       id="radialGradient7409"
       gradientUnits="userSpaceOnUse"
       gradientTransform="matrix(1.5182684,-0.7658339,0.49299482,0.99469399,-359.07888,202.01262)"
       spreadMethod="reflect"
       cx="265.1395"
       cy="472.22134"
       fx="265.1395"
       fy="472.22134"
       r="29.877983" />
    <radialGradient
       inkscape:collect="always"
       xlink:href="#linearGradient5736"
       id="radialGradient7415"
       gradientUnits="userSpaceOnUse"
       gradientTransform="matrix(1.5182684,-0.7658339,0.49299482,0.99469399,-359.07888,202.01262)"
       spreadMethod="reflect"
       cx="265.1395"
       cy="472.22134"
       fx="265.1395"
       fy="472.22134"
       r="29.877983" />
    <radialGradient
       inkscape:collect="always"
       xlink:href="#linearGradient5736"
       id="radialGradient7429"
       gradientUnits="userSpaceOnUse"
       gradientTransform="matrix(1.5182684,-0.7658339,0.49299482,0.99469399,-359.07888,202.01262)"
       spreadMethod="reflect"
       cx="265.1395"
       cy="472.22134"
       fx="265.1395"
       fy="472.22134"
       r="29.877983" />
    <radialGradient
       inkscape:collect="always"
       xlink:href="#linearGradient5736"
       id="radialGradient7431"
       gradientUnits="userSpaceOnUse"
       gradientTransform="matrix(1.5182684,-0.7658339,0.49299482,0.99469399,-359.07888,202.01262)"
       spreadMethod="reflect"
       cx="265.1395"
       cy="472.22134"
       fx="265.1395"
       fy="472.22134"
       r="29.877983" />
    <radialGradient
       inkscape:collect="always"
       xlink:href="#linearGradient5736"
       id="radialGradient7489"
       gradientUnits="userSpaceOnUse"
       gradientTransform="matrix(1.5182684,-0.7658339,0.49299482,0.99469399,-359.07888,202.01262)"
       spreadMethod="reflect"
       cx="265.1395"
       cy="472.22134"
       fx="265.1395"
       fy="472.22134"
       r="29.877983" />
    <radialGradient
       inkscape:collect="always"
       xlink:href="#linearGradient5736"
       id="radialGradient7503"
       gradientUnits="userSpaceOnUse"
       gradientTransform="matrix(1.5182684,-0.7658339,0.49299482,0.99469399,-359.07888,202.01262)"
       spreadMethod="reflect"
       cx="265.1395"
       cy="472.22134"
       fx="265.1395"
       fy="472.22134"
       r="29.877983" />
    <radialGradient
       inkscape:collect="always"
       xlink:href="#linearGradient5736"
       id="radialGradient7515"
       gradientUnits="userSpaceOnUse"
       gradientTransform="matrix(1.5182684,-0.7658339,0.49299482,0.99469399,-359.07888,202.01262)"
       spreadMethod="reflect"
       cx="265.1395"
       cy="472.22134"
       fx="265.1395"
       fy="472.22134"
       r="29.877983" />
    <radialGradient
       inkscape:collect="always"
       xlink:href="#linearGradient5736"
       id="radialGradient7575"
       gradientUnits="userSpaceOnUse"
       gradientTransform="matrix(1.5182684,-0.7658339,0.49299482,0.99469399,-359.07888,202.01262)"
       spreadMethod="reflect"
       cx="265.1395"
       cy="472.22134"
       fx="265.1395"
       fy="472.22134"
       r="29.877983" />
    <radialGradient
       inkscape:collect="always"
       xlink:href="#linearGradient5736"
       id="radialGradient7589"
       gradientUnits="userSpaceOnUse"
       gradientTransform="matrix(1.5182684,-0.7658339,0.49299482,0.99469399,-359.07888,202.01262)"
       spreadMethod="reflect"
       cx="265.1395"
       cy="472.22134"
       fx="265.1395"
       fy="472.22134"
       r="29.877983" />
    <radialGradient
       inkscape:collect="always"
       xlink:href="#linearGradient5736"
       id="radialGradient7603"
       gradientUnits="userSpaceOnUse"
       gradientTransform="matrix(1.5182684,-0.7658339,0.49299482,0.99469399,-359.07888,202.01262)"
       spreadMethod="reflect"
       cx="265.1395"
       cy="472.22134"
       fx="265.1395"
       fy="472.22134"
       r="29.877983" />
    <radialGradient
       inkscape:collect="always"
       xlink:href="#linearGradient5736"
       id="radialGradient7605"
       gradientUnits="userSpaceOnUse"
       gradientTransform="matrix(1.5182684,-0.7658339,0.49299482,0.99469399,-359.07888,202.01262)"
       spreadMethod="reflect"
       cx="265.1395"
       cy="472.22134"
       fx="265.1395"
       fy="472.22134"
       r="29.877983" />
    <radialGradient
       inkscape:collect="always"
       xlink:href="#linearGradient5736"
       id="radialGradient7759"
       gradientUnits="userSpaceOnUse"
       gradientTransform="matrix(1.5182684,-0.7658339,0.49299482,0.99469399,-359.07888,202.01262)"
       spreadMethod="reflect"
       cx="265.1395"
       cy="472.22134"
       fx="265.1395"
       fy="472.22134"
       r="29.877983" />
    <radialGradient
       inkscape:collect="always"
       xlink:href="#linearGradient6437"
       id="radialGradient7762"
       gradientUnits="userSpaceOnUse"
       gradientTransform="matrix(1.4401455,-0.93922514,0.50761233,0.77833905,-413.39173,-154.87325)"
       cx="248.13567"
       cy="642.3017"
       fx="248.13567"
       fy="642.3017"
       r="159.7061" />
    <radialGradient
       inkscape:collect="always"
       xlink:href="#linearGradient4049"
       id="radialGradient6318"
       gradientUnits="userSpaceOnUse"
       gradientTransform="matrix(0.8294323,-0.01292672,0.0064006,0.41068957,49.714729,-24.083895)"
       cx="284.1098"
       cy="1036.6869"
       fx="284.1098"
       fy="1036.6869"
       r="211.8744" />
    <linearGradient
       inkscape:collect="always"
       xlink:href="#linearGradient7737"
       id="linearGradient6320"
       gradientUnits="userSpaceOnUse"
       x1="235.51039"
       y1="985.58527"
       x2="300.65216"
       y2="850.44348" />
    <linearGradient
       inkscape:collect="always"
       xlink:href="#linearGradient6115"
       id="linearGradient6322"
       gradientUnits="userSpaceOnUse"
       gradientTransform="matrix(1.2943811,0,0,0.83017666,38.91975,303.70255)"
       x1="171.46796"
       y1="174.26328"
       x2="177.99316"
       y2="96.382355" />
    <linearGradient
       inkscape:collect="always"
       xlink:href="#linearGradient4156"
       id="linearGradient6330"
       gradientUnits="userSpaceOnUse"
       gradientTransform="translate(0,6)"
       x1="169.52365"
       y1="463.66882"
       x2="165"
       y2="482" />
    <linearGradient
       inkscape:collect="always"
       xlink:href="#linearGradient4156"
       id="linearGradient3091"
       gradientUnits="userSpaceOnUse"
       gradientTransform="translate(240,6)"
       x1="169.52365"
       y1="463.66882"
       x2="165"
       y2="482" />
    <filter
       inkscape:collect="always"
       id="filter4001"
       x="-0.12782766"
       width="1.2556553"
       y="-0.13559445"
       height="1.2711889">
      <feGaussianBlur
         inkscape:collect="always"
         stdDeviation="3.1103345"
         id="feGaussianBlur4003" />
    </filter>
    <radialGradient
       inkscape:collect="always"
       xlink:href="#linearGradient5736"
       id="radialGradient3257"
       gradientUnits="userSpaceOnUse"
       gradientTransform="matrix(1.5182684,-0.7658339,0.49299482,0.99469399,-359.07888,202.01262)"
       spreadMethod="reflect"
       cx="265.1395"
       cy="472.22134"
       fx="265.1395"
       fy="472.22134"
       r="29.877983" />
    <radialGradient
       inkscape:collect="always"
       xlink:href="#linearGradient5736"
       id="radialGradient3259"
       gradientUnits="userSpaceOnUse"
       gradientTransform="matrix(1.5182684,-0.7658339,0.49299482,0.99469399,-359.07888,202.01262)"
       spreadMethod="reflect"
       cx="265.1395"
       cy="472.22134"
       fx="265.1395"
       fy="472.22134"
       r="29.877983" />
    <radialGradient
       inkscape:collect="always"
       xlink:href="#linearGradient5736"
       id="radialGradient3261"
       gradientUnits="userSpaceOnUse"
       gradientTransform="matrix(1.5182684,-0.7658339,0.49299482,0.99469399,-359.07888,202.01262)"
       spreadMethod="reflect"
       cx="265.1395"
       cy="472.22134"
       fx="265.1395"
       fy="472.22134"
       r="29.877983" />
    <radialGradient
       inkscape:collect="always"
       xlink:href="#linearGradient5736"
       id="radialGradient3263"
       gradientUnits="userSpaceOnUse"
       gradientTransform="matrix(1.5182684,-0.7658339,0.49299482,0.99469399,-359.07888,202.01262)"
       spreadMethod="reflect"
       cx="265.1395"
       cy="472.22134"
       fx="265.1395"
       fy="472.22134"
       r="29.877983" />
    <clipPath
       clipPathUnits="userSpaceOnUse"
       id="clipPath3265">
      <rect
         style="color:#000000;fill:#d40000;fill-opacity:1;stroke:none;stroke-width:20;marker:none;visibility:visible;display:inline;overflow:visible;enable-background:accumulate"
         id="rect3267"
         width="125.09566"
         height="125.09566"
         x="5.25207"
         y="381.61942" />
    </clipPath>
  </defs>
  <sodipodi:namedview
     id="base"
     pagecolor="#000000"
     bordercolor="#666666"
     borderopacity="1.0"
     inkscape:pageopacity="0"
     inkscape:pageshadow="2"
     inkscape:zoom="2.8284271"
     inkscape:cx="63.855023"
     inkscape:cy="88.390454"
     inkscape:document-units="px"
     inkscape:current-layer="layer3"
     showgrid="false"
     inkscape:window-width="1031"
     inkscape:window-height="696"
     inkscape:window-x="0"
     inkscape:window-y="0"
     inkscape:window-maximized="1">
    <inkscape:grid
       type="xygrid"
       id="grid2985"
       empspacing="5"
       visible="true"
       enabled="true"
       snapvisiblegridlinesonly="true"
       color="#0000ff"
       opacity="0.52156863"
       empcolor="#7c7cff"
       empopacity="0.23921569" />
  </sodipodi:namedview>
  <metadata
     id="metadata7">
    <rdf:RDF>
      <cc:Work
         rdf:about="">
        <dc:format>image/svg+xml</dc:format>
        <dc:type
           rdf:resource="http://purl.org/dc/dcmitype/StillImage" />
        <dc:title></dc:title>
      </cc:Work>
    </rdf:RDF>
  </metadata>
  <g
     style="display:none"
     inkscape:label="BG"
     id="g4118"
     inkscape:groupmode="layer"
     transform="translate(0,-362)"
     sodipodi:insensitive="true">
    <rect
       y="362"
       x="-7.1054274e-15"
       height="150"
       width="150"
       id="rect4120"
       style="color:#000000;fill:#ffbb33;fill-opacity:1;stroke:none;stroke-width:20;marker:none;visibility:visible;display:inline;overflow:visible;enable-background:accumulate" />
    <rect
       ry="0"
       y="102"
       x="0"
       height="410"
       width="300"
       id="rect4122"
       style="color:#000000;fill:none;stroke:none;stroke-width:20;marker:none;visibility:visible;display:inline;overflow:visible;enable-background:accumulate" />
  </g>
  <g
     inkscape:groupmode="layer"
     id="layer3"
     inkscape:label="Snow"
     style="display:inline"
     transform="translate(0,-362)">
    <g
       id="g3179"
       transform="matrix(1.1990823,0,0,1.1990823,-6.2976642,-95.593072)"
       clip-path="url(#clipPath3265)">
      <g
         transform="matrix(2.6453402,0,0,2.6221948,-596.84585,-968.95857)"
         id="g3844"
         style="fill:none;stroke:url(#radialGradient3257);stroke-width:6.45469427;stroke-linecap:butt;stroke-linejoin:round;stroke-miterlimit:4;stroke-opacity:1;stroke-dasharray:none" />
      <g
         transform="matrix(-1.3226701,-2.2708873,2.2909318,-1.3110974,-533.58854,1465.829)"
         id="g3852"
         style="fill:none;stroke:url(#radialGradient3259);stroke-width:6.45469427;stroke-linecap:butt;stroke-linejoin:round;stroke-miterlimit:4;stroke-opacity:1;stroke-dasharray:none" />
      <g
         style="fill:none;stroke:#000000;stroke-width:9.50446033;stroke-linecap:square;stroke-linejoin:round;stroke-miterlimit:4;stroke-opacity:0.78666669;stroke-dasharray:none"
         transform="matrix(1.116296,-1.7176171,1.9334814,0.99166684,-1094.8297,443.85519)"
         id="g8959">
        <path
           id="path8961"
           style="fill:none;stroke:#000000;stroke-width:9.50446033;stroke-linecap:square;stroke-linejoin:round;stroke-miterlimit:4;stroke-opacity:0.78666669;stroke-dasharray:none"
           d="m 280,472.36218 c 10,10 10,10 10,10 m -10,-10 c -10,10 -10,10 -10,10 m 10,-40 c 10,-10 10,-10 10,-10 m -10,10 c -10,-10 -10,-10 -10,-10 m 10,-5 0,60 m 0,-60 0,60 m 12.99037,-22.49999 c 13.66025,-3.66026 13.66025,-3.66026 13.66025,-3.66026 m -13.66025,3.66026 c 3.66025,13.66025 3.66025,13.66025 3.66025,13.66025 m -29.64101,-28.66025 c -3.66026,-13.66026 -3.66026,-13.66026 -3.66026,-13.66026 m 3.66026,13.66026 c -13.66026,3.66025 -13.66026,3.66025 -13.66026,3.66025 m 0.66988,-11.16025 51.96152,30 m -51.96152,-30 51.96152,30 m -38.97113,-7.5 c -3.66026,13.66025 -3.66026,13.66025 -3.66026,13.66025 m 3.66026,-13.66025 c -13.66026,-3.66026 -13.66026,-3.66026 -13.66026,-3.66026 m 39.64102,-11.33974 c 13.66026,3.66025 13.66026,3.66025 13.66026,3.66025 m -13.66026,-3.66025 c 3.66026,-13.66026 3.66026,-13.66026 3.66026,-13.66026 m 9.33012,6.16026 -51.96152,30 m 51.96152,-30 -51.96152,30"
           inkscape:connector-curvature="0" />
      </g>
      <g
         id="g3985"
         transform="matrix(1.116296,-1.7176171,1.9334814,0.99166684,-1094.8297,447.85519)"
         style="opacity:0.59913791;fill:none;stroke:#000000;stroke-width:9.50446033;stroke-linecap:square;stroke-linejoin:round;stroke-miterlimit:4;stroke-opacity:0.78666669;stroke-dasharray:none;filter:url(#filter4001)">
        <path
           inkscape:connector-curvature="0"
           d="m 280,472.36218 c 10,10 10,10 10,10 m -10,-10 c -10,10 -10,10 -10,10 m 10,-40 c 10,-10 10,-10 10,-10 m -10,10 c -10,-10 -10,-10 -10,-10 m 10,-5 0,60 m 0,-60 0,60 m 12.99037,-22.49999 c 13.66025,-3.66026 13.66025,-3.66026 13.66025,-3.66026 m -13.66025,3.66026 c 3.66025,13.66025 3.66025,13.66025 3.66025,13.66025 m -29.64101,-28.66025 c -3.66026,-13.66026 -3.66026,-13.66026 -3.66026,-13.66026 m 3.66026,13.66026 c -13.66026,3.66025 -13.66026,3.66025 -13.66026,3.66025 m 0.66988,-11.16025 51.96152,30 m -51.96152,-30 51.96152,30 m -38.97113,-7.5 c -3.66026,13.66025 -3.66026,13.66025 -3.66026,13.66025 m 3.66026,-13.66025 c -13.66026,-3.66026 -13.66026,-3.66026 -13.66026,-3.66026 m 39.64102,-11.33974 c 13.66026,3.66025 13.66026,3.66025 13.66026,3.66025 m -13.66026,-3.66025 c 3.66026,-13.66026 3.66026,-13.66026 3.66026,-13.66026 m 9.33012,6.16026 -51.96152,30 m 51.96152,-30 -51.96152,30"
           style="fill:none;stroke:#000000;stroke-width:9.50446033;stroke-linecap:square;stroke-linejoin:round;stroke-miterlimit:4;stroke-opacity:0.78666669;stroke-dasharray:none"
           id="path3987" />
      </g>
      <g
         id="g3866"
         transform="matrix(1.116296,-1.7176171,1.9334814,0.99166677,-1094.8297,443.85522)"
         style="fill:none;stroke:url(#radialGradient3263);stroke-width:5.22745323;stroke-linecap:square;stroke-linejoin:round;stroke-miterlimit:4;stroke-opacity:1;stroke-dasharray:none">
        <path
           inkscape:connector-curvature="0"
           d="m 280,472.36218 c 10,10 10,10 10,10 m -10,-10 c -10,10 -10,10 -10,10 m 10,-40 c 10,-10 10,-10 10,-10 m -10,10 c -10,-10 -10,-10 -10,-10 m 10,-5 0,60 m 0,-60 0,60 m 12.99037,-22.49999 c 13.66025,-3.66026 13.66025,-3.66026 13.66025,-3.66026 m -13.66025,3.66026 c 3.66025,13.66025 3.66025,13.66025 3.66025,13.66025 m -29.64101,-28.66025 c -3.66026,-13.66026 -3.66026,-13.66026 -3.66026,-13.66026 m 3.66026,13.66026 c -13.66026,3.66025 -13.66026,3.66025 -13.66026,3.66025 m 0.66988,-11.16025 51.96152,30 m -51.96152,-30 51.96152,30 m -38.97113,-7.5 c -3.66026,13.66025 -3.66026,13.66025 -3.66026,13.66025 m 3.66026,-13.66025 c -13.66026,-3.66026 -13.66026,-3.66026 -13.66026,-3.66026 m 39.64102,-11.33974 c 13.66026,3.66025 13.66026,3.66025 13.66026,3.66025 m -13.66026,-3.66025 c 3.66026,-13.66026 3.66026,-13.66026 3.66026,-13.66026 m 9.33012,6.16026 -51.96152,30 m 51.96152,-30 -51.96152,30"
           style="fill:none;stroke:url(#radialGradient3261);stroke-width:5.22745323;stroke-linecap:square;stroke-linejoin:round;stroke-miterlimit:4;stroke-opacity:1;stroke-dasharray:none"
           id="path3878" />
      </g>
    </g>
  </g>
</svg>
